{
    "meta": {
        "threading_mode": "thread-per-request",
        "pin_mode": "no-pin",
        "keepalive": false
    },
    "results": {
        "2": {
            "load": {
                "ok_queries": 1000.0,
                "errors": 0.0,
                "timeouts": 0.0,
                "total": 1000.0,
                "rps": 40.05238210741536,
                "total time": 24.967304,
                "avg": 49.813509,
                "min": 39.028,
                "max": 70.236,
                "q99": 64.77341999999999
            },
            "perf": {
                "task-clock": {
                    "counter-value": "48957.495334",
                    "unit": "msec",
                    "event-runtime": 48957495334,
                    "pcnt-running": 100.0,
                    "metric-value": "1.953156",
                    "metric-unit": "CPUs utilized"
                },
                "context-switches": {
                    "counter-value": "9218.000000",
                    "unit": "",
                    "event-runtime": 48957495334,
                    "pcnt-running": 100.0,
                    "metric-value": "188.285776",
                    "metric-unit": "/sec"
                },
                "cpu-migrations": {
                    "counter-value": "85.000000",
                    "unit": "",
                    "event-runtime": 48957495334,
                    "pcnt-running": 100.0,
                    "metric-value": "1.736200",
                    "metric-unit": "/sec"
                },
                "page-faults": {
                    "counter-value": "15000.000000",
                    "unit": "",
                    "event-runtime": 48957495334,
                    "pcnt-running": 100.0,
                    "metric-value": "306.388223",
                    "metric-unit": "/sec"
                },
                "cycles": {
                    "counter-value": "132219150914.000000",
                    "unit": "",
                    "event-runtime": 18835712663,
                    "pcnt-running": 40.0,
                    "metric-value": "2.700693",
                    "metric-unit": "GHz"
                },
                "instructions": {
                    "counter-value": "177205386054.000000",
                    "unit": "",
                    "event-runtime": 22552147468,
                    "pcnt-running": 47.0,
                    "metric-value": "1.340240",
                    "metric-unit": "insn per cycle"
                },
                "branches": {
                    "counter-value": "4713643107.000000",
                    "unit": "",
                    "event-runtime": 22531981242,
                    "pcnt-running": 47.0,
                    "metric-value": "96.280316",
                    "metric-unit": "M/sec"
                },
                "branch-misses": {
                    "counter-value": "71005194.000000",
                    "unit": "",
                    "event-runtime": 22533784561,
                    "pcnt-running": 47.0,
                    "metric-value": "1.506376",
                    "metric-unit": "of all branches"
                },
                "L1-dcache-loads": {
                    "counter-value": "58287441446.000000",
                    "unit": "",
                    "event-runtime": 22540725778,
                    "pcnt-running": 47.0,
                    "metric-value": "1.190572",
                    "metric-unit": "G/sec"
                },
                "L1-dcache-load-misses": {
                    "counter-value": "10242346118.000000",
                    "unit": "",
                    "event-runtime": 22565495885,
                    "pcnt-running": 47.0,
                    "metric-value": "17.572132",
                    "metric-unit": "of all L1-dcache accesses"
                },
                "LLC-loads": {
                    "counter-value": "1512722151.000000",
                    "unit": "",
                    "event-runtime": 15147944804,
                    "pcnt-running": 32.0,
                    "metric-value": "30.898683",
                    "metric-unit": "M/sec"
                },
                "LLC-load-misses": {
                    "counter-value": "502545545.000000",
                    "unit": "",
                    "event-runtime": 15122896014,
                    "pcnt-running": 32.0,
                    "metric-value": "33.221272",
                    "metric-unit": "of all L1-icache accesses"
                },
                "L1-icache-loads": {
                    "counter-value": "<not supported>",
                    "unit": "",
                    "event-runtime": 0,
                    "pcnt-running": 100.0,
                    "metric-value": "0.000000",
                    "metric-unit": ""
                },
                "L1-icache-load-misses": {
                    "counter-value": "869203597.000000",
                    "unit": "",
                    "event-runtime": 15083793203,
                    "pcnt-running": 32.0,
                    "metric-value": "0.000000",
                    "metric-unit": "of all L1-icache accesses"
                },
                "dTLB-loads": {
                    "counter-value": "57544406613.000000",
                    "unit": "",
                    "event-runtime": 15048764865,
                    "pcnt-running": 32.0,
                    "metric-value": "1.175395",
                    "metric-unit": "G/sec"
                },
                "dTLB-load-misses": {
                    "counter-value": "167499520.000000",
                    "unit": "",
                    "event-runtime": 15059394168,
                    "pcnt-running": 32.0,
                    "metric-value": "0.291079",
                    "metric-unit": "of all dTLB cache accesses"
                },
                "iTLB-loads": {
                    "counter-value": "53591647.000000",
                    "unit": "",
                    "event-runtime": 15095281199,
                    "pcnt-running": 32.0,
                    "metric-value": "1.094657",
                    "metric-unit": "M/sec"
                },
                "iTLB-load-misses": {
                    "counter-value": "17169433.000000",
                    "unit": "",
                    "event-runtime": 15099919617,
                    "pcnt-running": 32.0,
                    "metric-value": "32.037517",
                    "metric-unit": "of all iTLB cache accesses"
                },
                "L1-dcache-prefetches": {
                    "counter-value": "<not supported>",
                    "unit": "",
                    "event-runtime": 0,
                    "pcnt-running": 100.0,
                    "metric-value": "0.000000",
                    "metric-unit": ""
                },
                "L1-dcache-prefetch-misses": {
                    "counter-value": "<not supported>",
                    "unit": "",
                    "event-runtime": 0,
                    "pcnt-running": 100.0,
                    "metric-value": "0.000000",
                    "metric-unit": ""
                }
            }
        },
        "4": {
            "load": {
                "ok_queries": 1000.0,
                "errors": 0.0,
                "timeouts": 0.0,
                "total": 1000.0,
                "rps": 40.10555943665967,
                "total time": 24.934199,
                "avg": 99.396866,
                "min": 56.954,
                "max": 139.36,
                "q99": 128.39685
            },
            "perf": {
                "task-clock": {
                    "counter-value": "98307.075086",
                    "unit": "msec",
                    "event-runtime": 98307075086,
                    "pcnt-running": 100.0,
                    "metric-value": "3.922046",
                    "metric-unit": "CPUs utilized"
                },
                "context-switches": {
                    "counter-value": "3559.000000",
                    "unit": "",
                    "event-runtime": 98307075086,
                    "pcnt-running": 100.0,
                    "metric-value": "36.202888",
                    "metric-unit": "/sec"
                },
                "cpu-migrations": {
                    "counter-value": "275.000000",
                    "unit": "",
                    "event-runtime": 98307075086,
                    "pcnt-running": 100.0,
                    "metric-value": "2.797357",
                    "metric-unit": "/sec"
                },
                "page-faults": {
                    "counter-value": "15000.000000",
                    "unit": "",
                    "event-runtime": 98307075086,
                    "pcnt-running": 100.0,
                    "metric-value": "152.583118",
                    "metric-unit": "/sec"
                },
                "cycles": {
                    "counter-value": "191656459462.000000",
                    "unit": "",
                    "event-runtime": 37912536705,
                    "pcnt-running": 39.0,
                    "metric-value": "1.949569",
                    "metric-unit": "GHz"
                },
                "instructions": {
                    "counter-value": "180891252543.000000",
                    "unit": "",
                    "event-runtime": 45468035168,
                    "pcnt-running": 47.0,
                    "metric-value": "0.943831",
                    "metric-unit": "insn per cycle"
                },
                "branches": {
                    "counter-value": "4755523455.000000",
                    "unit": "",
                    "event-runtime": 45406990970,
                    "pcnt-running": 46.0,
                    "metric-value": "48.374173",
                    "metric-unit": "M/sec"
                },
                "branch-misses": {
                    "counter-value": "76874412.000000",
                    "unit": "",
                    "event-runtime": 45367253942,
                    "pcnt-running": 46.0,
                    "metric-value": "1.616529",
                    "metric-unit": "of all branches"
                },
                "L1-dcache-loads": {
                    "counter-value": "59344215301.000000",
                    "unit": "",
                    "event-runtime": 45325687397,
                    "pcnt-running": 46.0,
                    "metric-value": "603.661692",
                    "metric-unit": "M/sec"
                },
                "L1-dcache-load-misses": {
                    "counter-value": "11320233208.000000",
                    "unit": "",
                    "event-runtime": 45293660366,
                    "pcnt-running": 46.0,
                    "metric-value": "19.075546",
                    "metric-unit": "of all L1-dcache accesses"
                },
                "LLC-loads": {
                    "counter-value": "1431519451.000000",
                    "unit": "",
                    "event-runtime": 30178503028,
                    "pcnt-running": 31.0,
                    "metric-value": "14.561713",
                    "metric-unit": "M/sec"
                },
                "LLC-load-misses": {
                    "counter-value": "1049523253.000000",
                    "unit": "",
                    "event-runtime": 30194890500,
                    "pcnt-running": 31.0,
                    "metric-value": "73.315333",
                    "metric-unit": "of all L1-icache accesses"
                },
                "L1-icache-loads": {
                    "counter-value": "<not supported>",
                    "unit": "",
                    "event-runtime": 0,
                    "pcnt-running": 100.0,
                    "metric-value": "0.000000",
                    "metric-unit": ""
                },
                "L1-icache-load-misses": {
                    "counter-value": "970629185.000000",
                    "unit": "",
                    "event-runtime": 30235416160,
                    "pcnt-running": 31.0,
                    "metric-value": "0.000000",
                    "metric-unit": "of all L1-icache accesses"
                },
                "dTLB-loads": {
                    "counter-value": "58708781555.000000",
                    "unit": "",
                    "event-runtime": 30273031947,
                    "pcnt-running": 31.0,
                    "metric-value": "597.197928",
                    "metric-unit": "M/sec"
                },
                "dTLB-load-misses": {
                    "counter-value": "176654463.000000",
                    "unit": "",
                    "event-runtime": 30303710629,
                    "pcnt-running": 31.0,
                    "metric-value": "0.300900",
                    "metric-unit": "of all dTLB cache accesses"
                },
                "iTLB-loads": {
                    "counter-value": "58847669.000000",
                    "unit": "",
                    "event-runtime": 30317638022,
                    "pcnt-running": 31.0,
                    "metric-value": "598.610720",
                    "metric-unit": "K/sec"
                },
                "iTLB-load-misses": {
                    "counter-value": "18559827.000000",
                    "unit": "",
                    "event-runtime": 30331517383,
                    "pcnt-running": 31.0,
                    "metric-value": "31.538763",
                    "metric-unit": "of all iTLB cache accesses"
                },
                "L1-dcache-prefetches": {
                    "counter-value": "<not supported>",
                    "unit": "",
                    "event-runtime": 0,
                    "pcnt-running": 100.0,
                    "metric-value": "0.000000",
                    "metric-unit": ""
                },
                "L1-dcache-prefetch-misses": {
                    "counter-value": "<not supported>",
                    "unit": "",
                    "event-runtime": 0,
                    "pcnt-running": 100.0,
                    "metric-value": "0.000000",
                    "metric-unit": ""
                }
            }
        },
        "256": {
            "load": {
                "ok_queries": 1000.0,
                "errors": 0.0,
                "timeouts": 0.0,
                "total": 1000.0,
                "rps": 39.93802257904094,
                "total time": 25.038796,
                "avg": 6088.040453,
                "min": 561.049,
                "max": 10052.622,
                "q99": 9934.140739999999
            },
            "perf": {
                "task-clock": {
                    "counter-value": "194518.769226",
                    "unit": "msec",
                    "event-runtime": 194518769226,
                    "pcnt-running": 100.0,
                    "metric-value": "7.738510",
                    "metric-unit": "CPUs utilized"
                },
                "context-switches": {
                    "counter-value": "67035.000000",
                    "unit": "",
                    "event-runtime": 194518769226,
                    "pcnt-running": 100.0,
                    "metric-value": "344.619701",
                    "metric-unit": "/sec"
                },
                "cpu-migrations": {
                    "counter-value": "6623.000000",
                    "unit": "",
                    "event-runtime": 194518769226,
                    "pcnt-running": 100.0,
                    "metric-value": "34.048128",
                    "metric-unit": "/sec"
                },
                "page-faults": {
                    "counter-value": "64647.000000",
                    "unit": "",
                    "event-runtime": 194518769226,
                    "pcnt-running": 100.0,
                    "metric-value": "332.343250",
                    "metric-unit": "/sec"
                },
                "cycles": {
                    "counter-value": "354101839525.000000",
                    "unit": "",
                    "event-runtime": 74843726371,
                    "pcnt-running": 38.0,
                    "metric-value": "1.820399",
                    "metric-unit": "GHz"
                },
                "instructions": {
                    "counter-value": "183677786857.000000",
                    "unit": "",
                    "event-runtime": 89783303254,
                    "pcnt-running": 46.0,
                    "metric-value": "0.518715",
                    "metric-unit": "insn per cycle"
                },
                "branches": {
                    "counter-value": "5008734293.000000",
                    "unit": "",
                    "event-runtime": 89776865549,
                    "pcnt-running": 46.0,
                    "metric-value": "25.749362",
                    "metric-unit": "M/sec"
                },
                "branch-misses": {
                    "counter-value": "83140615.000000",
                    "unit": "",
                    "event-runtime": 89788988883,
                    "pcnt-running": 46.0,
                    "metric-value": "1.659913",
                    "metric-unit": "of all branches"
                },
                "L1-dcache-loads": {
                    "counter-value": "60127361506.000000",
                    "unit": "",
                    "event-runtime": 89719718795,
                    "pcnt-running": 46.0,
                    "metric-value": "309.108277",
                    "metric-unit": "M/sec"
                },
                "L1-dcache-load-misses": {
                    "counter-value": "18110073454.000000",
                    "unit": "",
                    "event-runtime": 89686197294,
                    "pcnt-running": 46.0,
                    "metric-value": "30.119521",
                    "metric-unit": "of all L1-dcache accesses"
                },
                "LLC-loads": {
                    "counter-value": "2032424946.000000",
                    "unit": "",
                    "event-runtime": 59890734919,
                    "pcnt-running": 31.0,
                    "metric-value": "10.448477",
                    "metric-unit": "M/sec"
                },
                "LLC-load-misses": {
                    "counter-value": "1685499726.000000",
                    "unit": "",
                    "event-runtime": 59912319772,
                    "pcnt-running": 31.0,
                    "metric-value": "82.930478",
                    "metric-unit": "of all L1-icache accesses"
                },
                "L1-icache-loads": {
                    "counter-value": "<not supported>",
                    "unit": "",
                    "event-runtime": 0,
                    "pcnt-running": 100.0,
                    "metric-value": "0.000000",
                    "metric-unit": ""
                },
                "L1-icache-load-misses": {
                    "counter-value": "1092566101.000000",
                    "unit": "",
                    "event-runtime": 59912925288,
                    "pcnt-running": 31.0,
                    "metric-value": "0.000000",
                    "metric-unit": "of all L1-icache accesses"
                },
                "dTLB-loads": {
                    "counter-value": "59758516042.000000",
                    "unit": "",
                    "event-runtime": 59845060292,
                    "pcnt-running": 31.0,
                    "metric-value": "307.212082",
                    "metric-unit": "M/sec"
                },
                "dTLB-load-misses": {
                    "counter-value": "258316716.000000",
                    "unit": "",
                    "event-runtime": 59807494574,
                    "pcnt-running": 31.0,
                    "metric-value": "0.432268",
                    "metric-unit": "of all dTLB cache accesses"
                },
                "iTLB-loads": {
                    "counter-value": "88766425.000000",
                    "unit": "",
                    "event-runtime": 59825212561,
                    "pcnt-running": 31.0,
                    "metric-value": "456.338611",
                    "metric-unit": "K/sec"
                },
                "iTLB-load-misses": {
                    "counter-value": "29525190.000000",
                    "unit": "",
                    "event-runtime": 59909558977,
                    "pcnt-running": 31.0,
                    "metric-value": "33.261664",
                    "metric-unit": "of all iTLB cache accesses"
                },
                "L1-dcache-prefetches": {
                    "counter-value": "<not supported>",
                    "unit": "",
                    "event-runtime": 0,
                    "pcnt-running": 100.0,
                    "metric-value": "0.000000",
                    "metric-unit": ""
                },
                "L1-dcache-prefetch-misses": {
                    "counter-value": "<not supported>",
                    "unit": "",
                    "event-runtime": 0,
                    "pcnt-running": 100.0,
                    "metric-value": "0.000000",
                    "metric-unit": ""
                }
            }
        },
        "8": {
            "load": {
                "ok_queries": 1000.0,
                "errors": 0.0,
                "timeouts": 0.0,
                "total": 1000.0,
                "rps": 45.489857990671126,
                "total time": 21.982922,
                "avg": 175.265066,
                "min": 91.55099999999999,
                "max": 251.45299999999997,
                "q99": 235.25268000000003
            },
            "perf": {
                "task-clock": {
                    "counter-value": "167608.766004",
                    "unit": "msec",
                    "event-runtime": 167608766004,
                    "pcnt-running": 100.0,
                    "metric-value": "7.589555",
                    "metric-unit": "CPUs utilized"
                },
                "context-switches": {
                    "counter-value": "14979.000000",
                    "unit": "",
                    "event-runtime": 167608766004,
                    "pcnt-running": 100.0,
                    "metric-value": "89.368834",
                    "metric-unit": "/sec"
                },
                "cpu-migrations": {
                    "counter-value": "1099.000000",
                    "unit": "",
                    "event-runtime": 167608766004,
                    "pcnt-running": 100.0,
                    "metric-value": "6.556936",
                    "metric-unit": "/sec"
                },
                "page-faults": {
                    "counter-value": "15000.000000",
                    "unit": "",
                    "event-runtime": 167608766004,
                    "pcnt-running": 100.0,
                    "metric-value": "89.494126",
                    "metric-unit": "/sec"
                },
                "cycles": {
                    "counter-value": "330289887623.000000",
                    "unit": "",
                    "event-runtime": 64551623484,
                    "pcnt-running": 39.0,
                    "metric-value": "1.970600",
                    "metric-unit": "GHz"
                },
                "instructions": {
                    "counter-value": "183011428221.000000",
                    "unit": "",
                    "event-runtime": 77422715551,
                    "pcnt-running": 46.0,
                    "metric-value": "0.554093",
                    "metric-unit": "insn per cycle"
                },
                "branches": {
                    "counter-value": "4890492486.000000",
                    "unit": "",
                    "event-runtime": 77384131741,
                    "pcnt-running": 46.0,
                    "metric-value": "29.178023",
                    "metric-unit": "M/sec"
                },
                "branch-misses": {
                    "counter-value": "81663260.000000",
                    "unit": "",
                    "event-runtime": 77349653911,
                    "pcnt-running": 46.0,
                    "metric-value": "1.669837",
                    "metric-unit": "of all branches"
                },
                "L1-dcache-loads": {
                    "counter-value": "60022199435.000000",
                    "unit": "",
                    "event-runtime": 77281837554,
                    "pcnt-running": 46.0,
                    "metric-value": "358.108951",
                    "metric-unit": "M/sec"
                },
                "L1-dcache-load-misses": {
                    "counter-value": "17911755926.000000",
                    "unit": "",
                    "event-runtime": 77223496361,
                    "pcnt-running": 46.0,
                    "metric-value": "29.841885",
                    "metric-unit": "of all L1-dcache accesses"
                },
                "LLC-loads": {
                    "counter-value": "1891280122.000000",
                    "unit": "",
                    "event-runtime": 51504905406,
                    "pcnt-running": 31.0,
                    "metric-value": "11.283897",
                    "metric-unit": "M/sec"
                },
                "LLC-load-misses": {
                    "counter-value": "1363402001.000000",
                    "unit": "",
                    "event-runtime": 51540251944,
                    "pcnt-running": 31.0,
                    "metric-value": "72.088845",
                    "metric-unit": "of all L1-icache accesses"
                },
                "L1-icache-loads": {
                    "counter-value": "<not supported>",
                    "unit": "",
                    "event-runtime": 0,
                    "pcnt-running": 100.0,
                    "metric-value": "0.000000",
                    "metric-unit": ""
                },
                "L1-icache-load-misses": {
                    "counter-value": "999546355.000000",
                    "unit": "",
                    "event-runtime": 51608571862,
                    "pcnt-running": 31.0,
                    "metric-value": "0.000000",
                    "metric-unit": "of all L1-icache accesses"
                },
                "dTLB-loads": {
                    "counter-value": "59261223366.000000",
                    "unit": "",
                    "event-runtime": 51631354655,
                    "pcnt-running": 31.0,
                    "metric-value": "353.568759",
                    "metric-unit": "M/sec"
                },
                "dTLB-load-misses": {
                    "counter-value": "240486012.000000",
                    "unit": "",
                    "event-runtime": 51621837131,
                    "pcnt-running": 31.0,
                    "metric-value": "0.405807",
                    "metric-unit": "of all dTLB cache accesses"
                },
                "iTLB-loads": {
                    "counter-value": "90336630.000000",
                    "unit": "",
                    "event-runtime": 51642791960,
                    "pcnt-running": 31.0,
                    "metric-value": "538.973182",
                    "metric-unit": "K/sec"
                },
                "iTLB-load-misses": {
                    "counter-value": "28574494.000000",
                    "unit": "",
                    "event-runtime": 51646231491,
                    "pcnt-running": 31.0,
                    "metric-value": "31.631127",
                    "metric-unit": "of all iTLB cache accesses"
                },
                "L1-dcache-prefetches": {
                    "counter-value": "<not supported>",
                    "unit": "",
                    "event-runtime": 0,
                    "pcnt-running": 100.0,
                    "metric-value": "0.000000",
                    "metric-unit": ""
                },
                "L1-dcache-prefetch-misses": {
                    "counter-value": "<not supported>",
                    "unit": "",
                    "event-runtime": 0,
                    "pcnt-running": 100.0,
                    "metric-value": "0.000000",
                    "metric-unit": ""
                }
            }
        },
        "7": {
            "load": {
                "ok_queries": 1000.0,
                "errors": 0.0,
                "timeouts": 0.0,
                "total": 1000.0,
                "rps": 43.778039560725894,
                "total time": 22.842503,
                "avg": 159.407911,
                "min": 66.50200000000001,
                "max": 202.536,
                "q99": 196.72233
            },
            "perf": {
                "task-clock": {
                    "counter-value": "157181.287361",
                    "unit": "msec",
                    "event-runtime": 157181287361,
                    "pcnt-running": 100.0,
                    "metric-value": "6.845551",
                    "metric-unit": "CPUs utilized"
                },
                "context-switches": {
                    "counter-value": "5283.000000",
                    "unit": "",
                    "event-runtime": 157181287361,
                    "pcnt-running": 100.0,
                    "metric-value": "33.610871",
                    "metric-unit": "/sec"
                },
                "cpu-migrations": {
                    "counter-value": "877.000000",
                    "unit": "",
                    "event-runtime": 157181287361,
                    "pcnt-running": 100.0,
                    "metric-value": "5.579545",
                    "metric-unit": "/sec"
                },
                "page-faults": {
                    "counter-value": "15000.000000",
                    "unit": "",
                    "event-runtime": 157181287361,
                    "pcnt-running": 100.0,
                    "metric-value": "95.431207",
                    "metric-unit": "/sec"
                },
                "cycles": {
                    "counter-value": "304496750446.000000",
                    "unit": "",
                    "event-runtime": 60451334028,
                    "pcnt-running": 39.0,
                    "metric-value": "1.937233",
                    "metric-unit": "GHz"
                },
                "instructions": {
                    "counter-value": "182435624472.000000",
                    "unit": "",
                    "event-runtime": 72552771141,
                    "pcnt-running": 46.0,
                    "metric-value": "0.599138",
                    "metric-unit": "insn per cycle"
                },
                "branches": {
                    "counter-value": "4849331405.000000",
                    "unit": "",
                    "event-runtime": 72576027283,
                    "pcnt-running": 46.0,
                    "metric-value": "30.851837",
                    "metric-unit": "M/sec"
                },
                "branch-misses": {
                    "counter-value": "79666380.000000",
                    "unit": "",
                    "event-runtime": 72619540611,
                    "pcnt-running": 46.0,
                    "metric-value": "1.642832",
                    "metric-unit": "of all branches"
                },
                "L1-dcache-loads": {
                    "counter-value": "59746691596.000000",
                    "unit": "",
                    "event-runtime": 72651905455,
                    "pcnt-running": 46.0,
                    "metric-value": "380.113260",
                    "metric-unit": "M/sec"
                },
                "L1-dcache-load-misses": {
                    "counter-value": "16645961037.000000",
                    "unit": "",
                    "event-runtime": 72653692077,
                    "pcnt-running": 46.0,
                    "metric-value": "27.860892",
                    "metric-unit": "of all L1-dcache accesses"
                },
                "LLC-loads": {
                    "counter-value": "1756564996.000000",
                    "unit": "",
                    "event-runtime": 48396276415,
                    "pcnt-running": 31.0,
                    "metric-value": "11.175408",
                    "metric-unit": "M/sec"
                },
                "LLC-load-misses": {
                    "counter-value": "1364232133.000000",
                    "unit": "",
                    "event-runtime": 48327682659,
                    "pcnt-running": 31.0,
                    "metric-value": "77.664768",
                    "metric-unit": "of all L1-icache accesses"
                },
                "L1-icache-loads": {
                    "counter-value": "<not supported>",
                    "unit": "",
                    "event-runtime": 0,
                    "pcnt-running": 100.0,
                    "metric-value": "0.000000",
                    "metric-unit": ""
                },
                "L1-icache-load-misses": {
                    "counter-value": "970046567.000000",
                    "unit": "",
                    "event-runtime": 48276252940,
                    "pcnt-running": 31.0,
                    "metric-value": "0.000000",
                    "metric-unit": "of all L1-icache accesses"
                },
                "dTLB-loads": {
                    "counter-value": "59417230656.000000",
                    "unit": "",
                    "event-runtime": 48273655755,
                    "pcnt-running": 31.0,
                    "metric-value": "378.017203",
                    "metric-unit": "M/sec"
                },
                "dTLB-load-misses": {
                    "counter-value": "229676831.000000",
                    "unit": "",
                    "event-runtime": 48289686883,
                    "pcnt-running": 31.0,
                    "metric-value": "0.386549",
                    "metric-unit": "of all dTLB cache accesses"
                },
                "iTLB-loads": {
                    "counter-value": "85115674.000000",
                    "unit": "",
                    "event-runtime": 48316276790,
                    "pcnt-running": 31.0,
                    "metric-value": "541.512768",
                    "metric-unit": "K/sec"
                },
                "iTLB-load-misses": {
                    "counter-value": "26635798.000000",
                    "unit": "",
                    "event-runtime": 48344152576,
                    "pcnt-running": 31.0,
                    "metric-value": "31.293646",
                    "metric-unit": "of all iTLB cache accesses"
                },
                "L1-dcache-prefetches": {
                    "counter-value": "<not supported>",
                    "unit": "",
                    "event-runtime": 0,
                    "pcnt-running": 100.0,
                    "metric-value": "0.000000",
                    "metric-unit": ""
                },
                "L1-dcache-prefetch-misses": {
                    "counter-value": "<not supported>",
                    "unit": "",
                    "event-runtime": 0,
                    "pcnt-running": 100.0,
                    "metric-value": "0.000000",
                    "metric-unit": ""
                }
            }
        },
        "512": {
            "load": {
                "ok_queries": 1000.0,
                "errors": 0.0,
                "timeouts": 0.0,
                "total": 1000.0,
                "rps": 39.52188322722103,
                "total time": 25.302438,
                "avg": 11710.309677,
                "min": 1013.698,
                "max": 25238.501,
                "q99": 25113.243870000002
            },
            "perf": {
                "task-clock": {
                    "counter-value": "194577.250646",
                    "unit": "msec",
                    "event-runtime": 194577250646,
                    "pcnt-running": 100.0,
                    "metric-value": "7.661504",
                    "metric-unit": "CPUs utilized"
                },
                "context-switches": {
                    "counter-value": "114397.000000",
                    "unit": "",
                    "event-runtime": 194577250646,
                    "pcnt-running": 100.0,
                    "metric-value": "587.925873",
                    "metric-unit": "/sec"
                },
                "cpu-migrations": {
                    "counter-value": "31230.000000",
                    "unit": "",
                    "event-runtime": 194577250646,
                    "pcnt-running": 100.0,
                    "metric-value": "160.501805",
                    "metric-unit": "/sec"
                },
                "page-faults": {
                    "counter-value": "290790.000000",
                    "unit": "",
                    "event-runtime": 194577250646,
                    "pcnt-running": 100.0,
                    "metric-value": "1.494471",
                    "metric-unit": "K/sec"
                },
                "cycles": {
                    "counter-value": "359826738282.000000",
                    "unit": "",
                    "event-runtime": 74944577441,
                    "pcnt-running": 38.0,
                    "metric-value": "1.849274",
                    "metric-unit": "GHz"
                },
                "instructions": {
                    "counter-value": "185981950807.000000",
                    "unit": "",
                    "event-runtime": 89897292864,
                    "pcnt-running": 46.0,
                    "metric-value": "0.516865",
                    "metric-unit": "insn per cycle"
                },
                "branches": {
                    "counter-value": "5450681704.000000",
                    "unit": "",
                    "event-runtime": 89901132086,
                    "pcnt-running": 46.0,
                    "metric-value": "28.012944",
                    "metric-unit": "M/sec"
                },
                "branch-misses": {
                    "counter-value": "93231352.000000",
                    "unit": "",
                    "event-runtime": 89857280263,
                    "pcnt-running": 46.0,
                    "metric-value": "1.710453",
                    "metric-unit": "of all branches"
                },
                "L1-dcache-loads": {
                    "counter-value": "60660317582.000000",
                    "unit": "",
                    "event-runtime": 89788743348,
                    "pcnt-running": 46.0,
                    "metric-value": "311.754418",
                    "metric-unit": "M/sec"
                },
                "L1-dcache-load-misses": {
                    "counter-value": "18110928351.000000",
                    "unit": "",
                    "event-runtime": 89718062425,
                    "pcnt-running": 46.0,
                    "metric-value": "29.856303",
                    "metric-unit": "of all L1-dcache accesses"
                },
                "LLC-loads": {
                    "counter-value": "2049976005.000000",
                    "unit": "",
                    "event-runtime": 59778967511,
                    "pcnt-running": 30.0,
                    "metric-value": "10.535538",
                    "metric-unit": "M/sec"
                },
                "LLC-load-misses": {
                    "counter-value": "1679470829.000000",
                    "unit": "",
                    "event-runtime": 59811756508,
                    "pcnt-running": 31.0,
                    "metric-value": "81.926365",
                    "metric-unit": "of all L1-icache accesses"
                },
                "L1-icache-loads": {
                    "counter-value": "<not supported>",
                    "unit": "",
                    "event-runtime": 0,
                    "pcnt-running": 100.0,
                    "metric-value": "0.000000",
                    "metric-unit": ""
                },
                "L1-icache-load-misses": {
                    "counter-value": "1295719417.000000",
                    "unit": "",
                    "event-runtime": 59865417142,
                    "pcnt-running": 31.0,
                    "metric-value": "0.000000",
                    "metric-unit": "of all L1-icache accesses"
                },
                "dTLB-loads": {
                    "counter-value": "60339978177.000000",
                    "unit": "",
                    "event-runtime": 59861130335,
                    "pcnt-running": 31.0,
                    "metric-value": "310.108083",
                    "metric-unit": "M/sec"
                },
                "dTLB-load-misses": {
                    "counter-value": "262202754.000000",
                    "unit": "",
                    "event-runtime": 59881124074,
                    "pcnt-running": 31.0,
                    "metric-value": "0.434542",
                    "metric-unit": "of all dTLB cache accesses"
                },
                "iTLB-loads": {
                    "counter-value": "88252259.000000",
                    "unit": "",
                    "event-runtime": 59901424612,
                    "pcnt-running": 31.0,
                    "metric-value": "453.558978",
                    "metric-unit": "K/sec"
                },
                "iTLB-load-misses": {
                    "counter-value": "31297120.000000",
                    "unit": "",
                    "event-runtime": 59943964280,
                    "pcnt-running": 31.0,
                    "metric-value": "35.463251",
                    "metric-unit": "of all iTLB cache accesses"
                },
                "L1-dcache-prefetches": {
                    "counter-value": "<not supported>",
                    "unit": "",
                    "event-runtime": 0,
                    "pcnt-running": 100.0,
                    "metric-value": "0.000000",
                    "metric-unit": ""
                },
                "L1-dcache-prefetch-misses": {
                    "counter-value": "<not supported>",
                    "unit": "",
                    "event-runtime": 0,
                    "pcnt-running": 100.0,
                    "metric-value": "0.000000",
                    "metric-unit": ""
                }
            }
        },
        "5": {
            "load": {
                "ok_queries": 1000.0,
                "errors": 0.0,
                "timeouts": 0.0,
                "total": 1000.0,
                "rps": 40.496116300958384,
                "total time": 24.693726,
                "avg": 123.169404,
                "min": 46.951,
                "max": 177.988,
                "q99": 173.38927999999999
            },
            "perf": {
                "task-clock": {
                    "counter-value": "122013.095915",
                    "unit": "msec",
                    "event-runtime": 122013095915,
                    "pcnt-running": 100.0,
                    "metric-value": "4.918599",
                    "metric-unit": "CPUs utilized"
                },
                "context-switches": {
                    "counter-value": "3570.000000",
                    "unit": "",
                    "event-runtime": 122013095915,
                    "pcnt-running": 100.0,
                    "metric-value": "29.259154",
                    "metric-unit": "/sec"
                },
                "cpu-migrations": {
                    "counter-value": "354.000000",
                    "unit": "",
                    "event-runtime": 122013095915,
                    "pcnt-running": 100.0,
                    "metric-value": "2.901328",
                    "metric-unit": "/sec"
                },
                "page-faults": {
                    "counter-value": "15000.000000",
                    "unit": "",
                    "event-runtime": 122013095915,
                    "pcnt-running": 100.0,
                    "metric-value": "122.937623",
                    "metric-unit": "/sec"
                },
                "cycles": {
                    "counter-value": "234047773783.000000",
                    "unit": "",
                    "event-runtime": 46967015652,
                    "pcnt-running": 39.0,
                    "metric-value": "1.918218",
                    "metric-unit": "GHz"
                },
                "instructions": {
                    "counter-value": "181656870941.000000",
                    "unit": "",
                    "event-runtime": 56335072924,
                    "pcnt-running": 46.0,
                    "metric-value": "0.776153",
                    "metric-unit": "insn per cycle"
                },
                "branches": {
                    "counter-value": "4811561232.000000",
                    "unit": "",
                    "event-runtime": 56313766697,
                    "pcnt-running": 46.0,
                    "metric-value": "39.434793",
                    "metric-unit": "M/sec"
                },
                "branch-misses": {
                    "counter-value": "78889673.000000",
                    "unit": "",
                    "event-runtime": 56281654712,
                    "pcnt-running": 46.0,
                    "metric-value": "1.639586",
                    "metric-unit": "of all branches"
                },
                "L1-dcache-loads": {
                    "counter-value": "59543793278.000000",
                    "unit": "",
                    "event-runtime": 56275184914,
                    "pcnt-running": 46.0,
                    "metric-value": "488.011494",
                    "metric-unit": "M/sec"
                },
                "L1-dcache-load-misses": {
                    "counter-value": "13353898344.000000",
                    "unit": "",
                    "event-runtime": 56278910633,
                    "pcnt-running": 46.0,
                    "metric-value": "22.427020",
                    "metric-unit": "of all L1-dcache accesses"
                },
                "LLC-loads": {
                    "counter-value": "1555060935.000000",
                    "unit": "",
                    "event-runtime": 37538210935,
                    "pcnt-running": 31.0,
                    "metric-value": "12.745033",
                    "metric-unit": "M/sec"
                },
                "LLC-load-misses": {
                    "counter-value": "1220446602.000000",
                    "unit": "",
                    "event-runtime": 37535801063,
                    "pcnt-running": 31.0,
                    "metric-value": "78.482237",
                    "metric-unit": "of all L1-icache accesses"
                },
                "L1-icache-loads": {
                    "counter-value": "<not supported>",
                    "unit": "",
                    "event-runtime": 0,
                    "pcnt-running": 100.0,
                    "metric-value": "0.000000",
                    "metric-unit": ""
                },
                "L1-icache-load-misses": {
                    "counter-value": "972797163.000000",
                    "unit": "",
                    "event-runtime": 37519336030,
                    "pcnt-running": 31.0,
                    "metric-value": "0.000000",
                    "metric-unit": "of all L1-icache accesses"
                },
                "dTLB-loads": {
                    "counter-value": "59151815295.000000",
                    "unit": "",
                    "event-runtime": 37531075207,
                    "pcnt-running": 31.0,
                    "metric-value": "484.798905",
                    "metric-unit": "M/sec"
                },
                "dTLB-load-misses": {
                    "counter-value": "197903999.000000",
                    "unit": "",
                    "event-runtime": 37581482146,
                    "pcnt-running": 31.0,
                    "metric-value": "0.334570",
                    "metric-unit": "of all dTLB cache accesses"
                },
                "iTLB-loads": {
                    "counter-value": "68229785.000000",
                    "unit": "",
                    "event-runtime": 37601238218,
                    "pcnt-running": 31.0,
                    "metric-value": "559.200506",
                    "metric-unit": "K/sec"
                },
                "iTLB-load-misses": {
                    "counter-value": "21809176.000000",
                    "unit": "",
                    "event-runtime": 37595723105,
                    "pcnt-running": 31.0,
                    "metric-value": "31.964304",
                    "metric-unit": "of all iTLB cache accesses"
                },
                "L1-dcache-prefetches": {
                    "counter-value": "<not supported>",
                    "unit": "",
                    "event-runtime": 0,
                    "pcnt-running": 100.0,
                    "metric-value": "0.000000",
                    "metric-unit": ""
                },
                "L1-dcache-prefetch-misses": {
                    "counter-value": "<not supported>",
                    "unit": "",
                    "event-runtime": 0,
                    "pcnt-running": 100.0,
                    "metric-value": "0.000000",
                    "metric-unit": ""
                }
            }
        },
        "32": {
            "load": {
                "ok_queries": 1000.0,
                "errors": 0.0,
                "timeouts": 0.0,
                "total": 1000.0,
                "rps": 38.95065684050656,
                "total time": 25.673508,
                "avg": 816.364549,
                "min": 231.333,
                "max": 1023.2300000000001,
                "q99": 958.87518
            },
            "perf": {
                "task-clock": {
                    "counter-value": "197887.031835",
                    "unit": "msec",
                    "event-runtime": 197887031835,
                    "pcnt-running": 100.0,
                    "metric-value": "7.673409",
                    "metric-unit": "CPUs utilized"
                },
                "context-switches": {
                    "counter-value": "67915.000000",
                    "unit": "",
                    "event-runtime": 197887031835,
                    "pcnt-running": 100.0,
                    "metric-value": "343.200862",
                    "metric-unit": "/sec"
                },
                "cpu-migrations": {
                    "counter-value": "1057.000000",
                    "unit": "",
                    "event-runtime": 197887031835,
                    "pcnt-running": 100.0,
                    "metric-value": "5.341431",
                    "metric-unit": "/sec"
                },
                "page-faults": {
                    "counter-value": "15000.000000",
                    "unit": "",
                    "event-runtime": 197887031835,
                    "pcnt-running": 100.0,
                    "metric-value": "75.800824",
                    "metric-unit": "/sec"
                },
                "cycles": {
                    "counter-value": "354157416172.000000",
                    "unit": "",
                    "event-runtime": 76097666573,
                    "pcnt-running": 38.0,
                    "metric-value": "1.789695",
                    "metric-unit": "GHz"
                },
                "instructions": {
                    "counter-value": "183250158475.000000",
                    "unit": "",
                    "event-runtime": 91338956414,
                    "pcnt-running": 46.0,
                    "metric-value": "0.517426",
                    "metric-unit": "insn per cycle"
                },
                "branches": {
                    "counter-value": "4933916292.000000",
                    "unit": "",
                    "event-runtime": 91349921111,
                    "pcnt-running": 46.0,
                    "metric-value": "24.932995",
                    "metric-unit": "M/sec"
                },
                "branch-misses": {
                    "counter-value": "83682042.000000",
                    "unit": "",
                    "event-runtime": 91375589096,
                    "pcnt-running": 46.0,
                    "metric-value": "1.696057",
                    "metric-unit": "of all branches"
                },
                "L1-dcache-loads": {
                    "counter-value": "60027407732.000000",
                    "unit": "",
                    "event-runtime": 91369792300,
                    "pcnt-running": 46.0,
                    "metric-value": "303.341796",
                    "metric-unit": "M/sec"
                },
                "L1-dcache-load-misses": {
                    "counter-value": "18089298484.000000",
                    "unit": "",
                    "event-runtime": 91376266110,
                    "pcnt-running": 46.0,
                    "metric-value": "30.135065",
                    "metric-unit": "of all L1-dcache accesses"
                },
                "LLC-loads": {
                    "counter-value": "2024129683.000000",
                    "unit": "",
                    "event-runtime": 60913043278,
                    "pcnt-running": 31.0,
                    "metric-value": "10.228713",
                    "metric-unit": "M/sec"
                },
                "LLC-load-misses": {
                    "counter-value": "1739498559.000000",
                    "unit": "",
                    "event-runtime": 60899028369,
                    "pcnt-running": 31.0,
                    "metric-value": "85.938098",
                    "metric-unit": "of all L1-icache accesses"
                },
                "L1-icache-loads": {
                    "counter-value": "<not supported>",
                    "unit": "",
                    "event-runtime": 0,
                    "pcnt-running": 100.0,
                    "metric-value": "0.000000",
                    "metric-unit": ""
                },
                "L1-icache-load-misses": {
                    "counter-value": "1063180487.000000",
                    "unit": "",
                    "event-runtime": 60880780460,
                    "pcnt-running": 31.0,
                    "metric-value": "0.000000",
                    "metric-unit": "of all L1-icache accesses"
                },
                "dTLB-loads": {
                    "counter-value": "59750052167.000000",
                    "unit": "",
                    "event-runtime": 60854415925,
                    "pcnt-running": 31.0,
                    "metric-value": "301.940211",
                    "metric-unit": "M/sec"
                },
                "dTLB-load-misses": {
                    "counter-value": "256265770.000000",
                    "unit": "",
                    "event-runtime": 60816925897,
                    "pcnt-running": 31.0,
                    "metric-value": "0.428896",
                    "metric-unit": "of all dTLB cache accesses"
                },
                "iTLB-loads": {
                    "counter-value": "88978924.000000",
                    "unit": "",
                    "event-runtime": 60845215483,
                    "pcnt-running": 31.0,
                    "metric-value": "449.645048",
                    "metric-unit": "K/sec"
                },
                "iTLB-load-misses": {
                    "counter-value": "29251481.000000",
                    "unit": "",
                    "event-runtime": 60867149311,
                    "pcnt-running": 31.0,
                    "metric-value": "32.874618",
                    "metric-unit": "of all iTLB cache accesses"
                },
                "L1-dcache-prefetches": {
                    "counter-value": "<not supported>",
                    "unit": "",
                    "event-runtime": 0,
                    "pcnt-running": 100.0,
                    "metric-value": "0.000000",
                    "metric-unit": ""
                },
                "L1-dcache-prefetch-misses": {
                    "counter-value": "<not supported>",
                    "unit": "",
                    "event-runtime": 0,
                    "pcnt-running": 100.0,
                    "metric-value": "0.000000",
                    "metric-unit": ""
                }
            }
        },
        "128": {
            "load": {
                "ok_queries": 1000.0,
                "errors": 0.0,
                "timeouts": 0.0,
                "total": 1000.0,
                "rps": 39.15557402306451,
                "total time": 25.539148,
                "avg": 3185.338745,
                "min": 1046.789,
                "max": 4347.209000000001,
                "q99": 4205.929609999999
            },
            "perf": {
                "task-clock": {
                    "counter-value": "198023.170077",
                    "unit": "msec",
                    "event-runtime": 198023170077,
                    "pcnt-running": 100.0,
                    "metric-value": "7.720327",
                    "metric-unit": "CPUs utilized"
                },
                "context-switches": {
                    "counter-value": "67126.000000",
                    "unit": "",
                    "event-runtime": 198023170077,
                    "pcnt-running": 100.0,
                    "metric-value": "338.980534",
                    "metric-unit": "/sec"
                },
                "cpu-migrations": {
                    "counter-value": "2905.000000",
                    "unit": "",
                    "event-runtime": 198023170077,
                    "pcnt-running": 100.0,
                    "metric-value": "14.670000",
                    "metric-unit": "/sec"
                },
                "page-faults": {
                    "counter-value": "15020.000000",
                    "unit": "",
                    "event-runtime": 198023170077,
                    "pcnt-running": 100.0,
                    "metric-value": "75.849710",
                    "metric-unit": "/sec"
                },
                "cycles": {
                    "counter-value": "352687631912.000000",
                    "unit": "",
                    "event-runtime": 76143880846,
                    "pcnt-running": 38.0,
                    "metric-value": "1.781042",
                    "metric-unit": "GHz"
                },
                "instructions": {
                    "counter-value": "183188023745.000000",
                    "unit": "",
                    "event-runtime": 91367643668,
                    "pcnt-running": 46.0,
                    "metric-value": "0.519406",
                    "metric-unit": "insn per cycle"
                },
                "branches": {
                    "counter-value": "4942478208.000000",
                    "unit": "",
                    "event-runtime": 91416212809,
                    "pcnt-running": 46.0,
                    "metric-value": "24.959090",
                    "metric-unit": "M/sec"
                },
                "branch-misses": {
                    "counter-value": "84073540.000000",
                    "unit": "",
                    "event-runtime": 91414325823,
                    "pcnt-running": 46.0,
                    "metric-value": "1.701040",
                    "metric-unit": "of all branches"
                },
                "L1-dcache-loads": {
                    "counter-value": "60036744727.000000",
                    "unit": "",
                    "event-runtime": 91371359686,
                    "pcnt-running": 46.0,
                    "metric-value": "303.180404",
                    "metric-unit": "M/sec"
                },
                "L1-dcache-load-misses": {
                    "counter-value": "18104362933.000000",
                    "unit": "",
                    "event-runtime": 91376037698,
                    "pcnt-running": 46.0,
                    "metric-value": "30.155471",
                    "metric-unit": "of all L1-dcache accesses"
                },
                "LLC-loads": {
                    "counter-value": "2031414431.000000",
                    "unit": "",
                    "event-runtime": 60922739033,
                    "pcnt-running": 30.0,
                    "metric-value": "10.258468",
                    "metric-unit": "M/sec"
                },
                "LLC-load-misses": {
                    "counter-value": "1720490849.000000",
                    "unit": "",
                    "event-runtime": 60927398440,
                    "pcnt-running": 31.0,
                    "metric-value": "84.694232",
                    "metric-unit": "of all L1-icache accesses"
                },
                "L1-icache-loads": {
                    "counter-value": "<not supported>",
                    "unit": "",
                    "event-runtime": 0,
                    "pcnt-running": 100.0,
                    "metric-value": "0.000000",
                    "metric-unit": ""
                },
                "L1-icache-load-misses": {
                    "counter-value": "1068963880.000000",
                    "unit": "",
                    "event-runtime": 60974809264,
                    "pcnt-running": 31.0,
                    "metric-value": "0.000000",
                    "metric-unit": "of all L1-icache accesses"
                },
                "dTLB-loads": {
                    "counter-value": "59732469027.000000",
                    "unit": "",
                    "event-runtime": 60933368127,
                    "pcnt-running": 31.0,
                    "metric-value": "301.643838",
                    "metric-unit": "M/sec"
                },
                "dTLB-load-misses": {
                    "counter-value": "258307428.000000",
                    "unit": "",
                    "event-runtime": 60915648158,
                    "pcnt-running": 31.0,
                    "metric-value": "0.432441",
                    "metric-unit": "of all dTLB cache accesses"
                },
                "iTLB-loads": {
                    "counter-value": "88981479.000000",
                    "unit": "",
                    "event-runtime": 60921175488,
                    "pcnt-running": 31.0,
                    "metric-value": "449.348826",
                    "metric-unit": "K/sec"
                },
                "iTLB-load-misses": {
                    "counter-value": "29124682.000000",
                    "unit": "",
                    "event-runtime": 60919605782,
                    "pcnt-running": 31.0,
                    "metric-value": "32.731173",
                    "metric-unit": "of all iTLB cache accesses"
                },
                "L1-dcache-prefetches": {
                    "counter-value": "<not supported>",
                    "unit": "",
                    "event-runtime": 0,
                    "pcnt-running": 100.0,
                    "metric-value": "0.000000",
                    "metric-unit": ""
                },
                "L1-dcache-prefetch-misses": {
                    "counter-value": "<not supported>",
                    "unit": "",
                    "event-runtime": 0,
                    "pcnt-running": 100.0,
                    "metric-value": "0.000000",
                    "metric-unit": ""
                }
            }
        },
        "1": {
            "load": {
                "ok_queries": 1000.0,
                "errors": 0.0,
                "timeouts": 0.0,
                "total": 1000.0,
                "rps": 21.265102635379918,
                "total time": 47.025402,
                "avg": 46.933781,
                "min": 41.079,
                "max": 57.01,
                "q99": 52.232299999999995
            },
            "perf": {
                "task-clock": {
                    "counter-value": "46394.243508",
                    "unit": "msec",
                    "event-runtime": 46394243508,
                    "pcnt-running": 100.0,
                    "metric-value": "0.984755",
                    "metric-unit": "CPUs utilized"
                },
                "context-switches": {
                    "counter-value": "1715.000000",
                    "unit": "",
                    "event-runtime": 46394243508,
                    "pcnt-running": 100.0,
                    "metric-value": "36.965793",
                    "metric-unit": "/sec"
                },
                "cpu-migrations": {
                    "counter-value": "25.000000",
                    "unit": "",
                    "event-runtime": 46394243508,
                    "pcnt-running": 100.0,
                    "metric-value": "0.538860",
                    "metric-unit": "/sec"
                },
                "page-faults": {
                    "counter-value": "16023.000000",
                    "unit": "",
                    "event-runtime": 46394243508,
                    "pcnt-running": 100.0,
                    "metric-value": "345.366123",
                    "metric-unit": "/sec"
                },
                "cycles": {
                    "counter-value": "123666485200.000000",
                    "unit": "",
                    "event-runtime": 18054191775,
                    "pcnt-running": 41.0,
                    "metric-value": "2.665557",
                    "metric-unit": "GHz"
                },
                "instructions": {
                    "counter-value": "177182591092.000000",
                    "unit": "",
                    "event-runtime": 21663661373,
                    "pcnt-running": 48.0,
                    "metric-value": "1.432745",
                    "metric-unit": "insn per cycle"
                },
                "branches": {
                    "counter-value": "4701753621.000000",
                    "unit": "",
                    "event-runtime": 21656574051,
                    "pcnt-running": 48.0,
                    "metric-value": "101.343470",
                    "metric-unit": "M/sec"
                },
                "branch-misses": {
                    "counter-value": "66487683.000000",
                    "unit": "",
                    "event-runtime": 21590223033,
                    "pcnt-running": 47.0,
                    "metric-value": "1.414104",
                    "metric-unit": "of all branches"
                },
                "L1-dcache-loads": {
                    "counter-value": "58701633387.000000",
                    "unit": "",
                    "event-runtime": 21457476976,
                    "pcnt-running": 47.0,
                    "metric-value": "1.265278",
                    "metric-unit": "G/sec"
                },
                "L1-dcache-load-misses": {
                    "counter-value": "10117102019.000000",
                    "unit": "",
                    "event-runtime": 21310711560,
                    "pcnt-running": 47.0,
                    "metric-value": "17.234788",
                    "metric-unit": "of all L1-dcache accesses"
                },
                "LLC-loads": {
                    "counter-value": "1714092468.000000",
                    "unit": "",
                    "event-runtime": 14051028292,
                    "pcnt-running": 31.0,
                    "metric-value": "36.946232",
                    "metric-unit": "M/sec"
                },
                "LLC-load-misses": {
                    "counter-value": "758803295.000000",
                    "unit": "",
                    "event-runtime": 14106887643,
                    "pcnt-running": 32.0,
                    "metric-value": "44.268516",
                    "metric-unit": "of all L1-icache accesses"
                },
                "L1-icache-loads": {
                    "counter-value": "<not supported>",
                    "unit": "",
                    "event-runtime": 0,
                    "pcnt-running": 100.0,
                    "metric-value": "0.000000",
                    "metric-unit": ""
                },
                "L1-icache-load-misses": {
                    "counter-value": "849343506.000000",
                    "unit": "",
                    "event-runtime": 14168861829,
                    "pcnt-running": 32.0,
                    "metric-value": "0.000000",
                    "metric-unit": "of all L1-icache accesses"
                },
                "dTLB-loads": {
                    "counter-value": "56444666225.000000",
                    "unit": "",
                    "event-runtime": 14234945523,
                    "pcnt-running": 32.0,
                    "metric-value": "1.216631",
                    "metric-unit": "G/sec"
                },
                "dTLB-load-misses": {
                    "counter-value": "164141405.000000",
                    "unit": "",
                    "event-runtime": 14270294181,
                    "pcnt-running": 32.0,
                    "metric-value": "0.290801",
                    "metric-unit": "of all dTLB cache accesses"
                },
                "iTLB-loads": {
                    "counter-value": "51564860.000000",
                    "unit": "",
                    "event-runtime": 14322100862,
                    "pcnt-running": 32.0,
                    "metric-value": "1.111450",
                    "metric-unit": "M/sec"
                },
                "iTLB-load-misses": {
                    "counter-value": "16385801.000000",
                    "unit": "",
                    "event-runtime": 14407870082,
                    "pcnt-running": 32.0,
                    "metric-value": "31.777069",
                    "metric-unit": "of all iTLB cache accesses"
                },
                "L1-dcache-prefetches": {
                    "counter-value": "<not supported>",
                    "unit": "",
                    "event-runtime": 0,
                    "pcnt-running": 100.0,
                    "metric-value": "0.000000",
                    "metric-unit": ""
                },
                "L1-dcache-prefetch-misses": {
                    "counter-value": "<not supported>",
                    "unit": "",
                    "event-runtime": 0,
                    "pcnt-running": 100.0,
                    "metric-value": "0.000000",
                    "metric-unit": ""
                }
            }
        },
        "64": {
            "load": {
                "ok_queries": 1000.0,
                "errors": 0.0,
                "timeouts": 0.0,
                "total": 1000.0,
                "rps": 38.93316584804494,
                "total time": 25.685042,
                "avg": 1624.581631,
                "min": 198.222,
                "max": 2088.426,
                "q99": 1914.8157999999999
            },
            "perf": {
                "task-clock": {
                    "counter-value": "198074.328704",
                    "unit": "msec",
                    "event-runtime": 198074328704,
                    "pcnt-running": 100.0,
                    "metric-value": "7.678594",
                    "metric-unit": "CPUs utilized"
                },
                "context-switches": {
                    "counter-value": "67664.000000",
                    "unit": "",
                    "event-runtime": 198074328704,
                    "pcnt-running": 100.0,
                    "metric-value": "341.609135",
                    "metric-unit": "/sec"
                },
                "cpu-migrations": {
                    "counter-value": "1372.000000",
                    "unit": "",
                    "event-runtime": 198074328704,
                    "pcnt-running": 100.0,
                    "metric-value": "6.926693",
                    "metric-unit": "/sec"
                },
                "page-faults": {
                    "counter-value": "15000.000000",
                    "unit": "",
                    "event-runtime": 198074328704,
                    "pcnt-running": 100.0,
                    "metric-value": "75.729147",
                    "metric-unit": "/sec"
                },
                "cycles": {
                    "counter-value": "354367051389.000000",
                    "unit": "",
                    "event-runtime": 76119164540,
                    "pcnt-running": 38.0,
                    "metric-value": "1.789061",
                    "metric-unit": "GHz"
                },
                "instructions": {
                    "counter-value": "183400039420.000000",
                    "unit": "",
                    "event-runtime": 91367507648,
                    "pcnt-running": 46.0,
                    "metric-value": "0.517543",
                    "metric-unit": "insn per cycle"
                },
                "branches": {
                    "counter-value": "4965781059.000000",
                    "unit": "",
                    "event-runtime": 91387817758,
                    "pcnt-running": 46.0,
                    "metric-value": "25.070291",
                    "metric-unit": "M/sec"
                },
                "branch-misses": {
                    "counter-value": "83966555.000000",
                    "unit": "",
                    "event-runtime": 91400840118,
                    "pcnt-running": 46.0,
                    "metric-value": "1.690903",
                    "metric-unit": "of all branches"
                },
                "L1-dcache-loads": {
                    "counter-value": "60038178540.000000",
                    "unit": "",
                    "event-runtime": 91436597108,
                    "pcnt-running": 46.0,
                    "metric-value": "303.109337",
                    "metric-unit": "M/sec"
                },
                "L1-dcache-load-misses": {
                    "counter-value": "18061939935.000000",
                    "unit": "",
                    "event-runtime": 91492969904,
                    "pcnt-running": 46.0,
                    "metric-value": "30.084090",
                    "metric-unit": "of all L1-dcache accesses"
                },
                "LLC-loads": {
                    "counter-value": "2022237853.000000",
                    "unit": "",
                    "event-runtime": 61022091312,
                    "pcnt-running": 31.0,
                    "metric-value": "10.209490",
                    "metric-unit": "M/sec"
                },
                "LLC-load-misses": {
                    "counter-value": "1732606938.000000",
                    "unit": "",
                    "event-runtime": 60998041739,
                    "pcnt-running": 31.0,
                    "metric-value": "85.677703",
                    "metric-unit": "of all L1-icache accesses"
                },
                "L1-icache-loads": {
                    "counter-value": "<not supported>",
                    "unit": "",
                    "event-runtime": 0,
                    "pcnt-running": 100.0,
                    "metric-value": "0.000000",
                    "metric-unit": ""
                },
                "L1-icache-load-misses": {
                    "counter-value": "1047336046.000000",
                    "unit": "",
                    "event-runtime": 60944582031,
                    "pcnt-running": 31.0,
                    "metric-value": "0.000000",
                    "metric-unit": "of all L1-icache accesses"
                },
                "dTLB-loads": {
                    "counter-value": "59745040681.000000",
                    "unit": "",
                    "event-runtime": 60916658916,
                    "pcnt-running": 31.0,
                    "metric-value": "301.629399",
                    "metric-unit": "M/sec"
                },
                "dTLB-load-misses": {
                    "counter-value": "257043972.000000",
                    "unit": "",
                    "event-runtime": 60896345512,
                    "pcnt-running": 31.0,
                    "metric-value": "0.430235",
                    "metric-unit": "of all dTLB cache accesses"
                },
                "iTLB-loads": {
                    "counter-value": "89098524.000000",
                    "unit": "",
                    "event-runtime": 60891274743,
                    "pcnt-running": 31.0,
                    "metric-value": "449.823683",
                    "metric-unit": "K/sec"
                },
                "iTLB-load-misses": {
                    "counter-value": "29240272.000000",
                    "unit": "",
                    "event-runtime": 60910095675,
                    "pcnt-running": 31.0,
                    "metric-value": "32.817908",
                    "metric-unit": "of all iTLB cache accesses"
                },
                "L1-dcache-prefetches": {
                    "counter-value": "<not supported>",
                    "unit": "",
                    "event-runtime": 0,
                    "pcnt-running": 100.0,
                    "metric-value": "0.000000",
                    "metric-unit": ""
                },
                "L1-dcache-prefetch-misses": {
                    "counter-value": "<not supported>",
                    "unit": "",
                    "event-runtime": 0,
                    "pcnt-running": 100.0,
                    "metric-value": "0.000000",
                    "metric-unit": ""
                }
            }
        },
        "16": {
            "load": {
                "ok_queries": 1000.0,
                "errors": 0.0,
                "timeouts": 0.0,
                "total": 1000.0,
                "rps": 39.240403111952325,
                "total time": 25.483938,
                "avg": 406.156877,
                "min": 178.672,
                "max": 592.416,
                "q99": 539.69338
            },
            "perf": {
                "task-clock": {
                    "counter-value": "195664.748439",
                    "unit": "msec",
                    "event-runtime": 195664748439,
                    "pcnt-running": 100.0,
                    "metric-value": "7.643465",
                    "metric-unit": "CPUs utilized"
                },
                "context-switches": {
                    "counter-value": "57779.000000",
                    "unit": "",
                    "event-runtime": 195664748439,
                    "pcnt-running": 100.0,
                    "metric-value": "295.295910",
                    "metric-unit": "/sec"
                },
                "cpu-migrations": {
                    "counter-value": "801.000000",
                    "unit": "",
                    "event-runtime": 195664748439,
                    "pcnt-running": 100.0,
                    "metric-value": "4.093737",
                    "metric-unit": "/sec"
                },
                "page-faults": {
                    "counter-value": "15000.000000",
                    "unit": "",
                    "event-runtime": 195664748439,
                    "pcnt-running": 100.0,
                    "metric-value": "76.661740",
                    "metric-unit": "/sec"
                },
                "cycles": {
                    "counter-value": "352224613467.000000",
                    "unit": "",
                    "event-runtime": 75284335045,
                    "pcnt-running": 38.0,
                    "metric-value": "1.800143",
                    "metric-unit": "GHz"
                },
                "instructions": {
                    "counter-value": "183295655823.000000",
                    "unit": "",
                    "event-runtime": 90358250100,
                    "pcnt-running": 46.0,
                    "metric-value": "0.520394",
                    "metric-unit": "insn per cycle"
                },
                "branches": {
                    "counter-value": "4958893035.000000",
                    "unit": "",
                    "event-runtime": 90373741335,
                    "pcnt-running": 46.0,
                    "metric-value": "25.343824",
                    "metric-unit": "M/sec"
                },
                "branch-misses": {
                    "counter-value": "84146548.000000",
                    "unit": "",
                    "event-runtime": 90321708882,
                    "pcnt-running": 46.0,
                    "metric-value": "1.696882",
                    "metric-unit": "of all branches"
                },
                "L1-dcache-loads": {
                    "counter-value": "60045258761.000000",
                    "unit": "",
                    "event-runtime": 90292769649,
                    "pcnt-running": 46.0,
                    "metric-value": "306.878266",
                    "metric-unit": "M/sec"
                },
                "L1-dcache-load-misses": {
                    "counter-value": "18052662857.000000",
                    "unit": "",
                    "event-runtime": 90281832540,
                    "pcnt-running": 46.0,
                    "metric-value": "30.065093",
                    "metric-unit": "of all L1-dcache accesses"
                },
                "LLC-loads": {
                    "counter-value": "2015438037.000000",
                    "unit": "",
                    "event-runtime": 60150022158,
                    "pcnt-running": 30.0,
                    "metric-value": "10.300466",
                    "metric-unit": "M/sec"
                },
                "LLC-load-misses": {
                    "counter-value": "1725119182.000000",
                    "unit": "",
                    "event-runtime": 60176097695,
                    "pcnt-running": 31.0,
                    "metric-value": "85.595248",
                    "metric-unit": "of all L1-icache accesses"
                },
                "L1-icache-loads": {
                    "counter-value": "<not supported>",
                    "unit": "",
                    "event-runtime": 0,
                    "pcnt-running": 100.0,
                    "metric-value": "0.000000",
                    "metric-unit": ""
                },
                "L1-icache-load-misses": {
                    "counter-value": "1048048950.000000",
                    "unit": "",
                    "event-runtime": 60183399426,
                    "pcnt-running": 31.0,
                    "metric-value": "0.000000",
                    "metric-unit": "of all L1-icache accesses"
                },
                "dTLB-loads": {
                    "counter-value": "59621550552.000000",
                    "unit": "",
                    "event-runtime": 60191261654,
                    "pcnt-running": 31.0,
                    "metric-value": "304.712786",
                    "metric-unit": "M/sec"
                },
                "dTLB-load-misses": {
                    "counter-value": "253148636.000000",
                    "unit": "",
                    "event-runtime": 60223225524,
                    "pcnt-running": 31.0,
                    "metric-value": "0.424593",
                    "metric-unit": "of all dTLB cache accesses"
                },
                "iTLB-loads": {
                    "counter-value": "89849424.000000",
                    "unit": "",
                    "event-runtime": 60227786717,
                    "pcnt-running": 31.0,
                    "metric-value": "459.200877",
                    "metric-unit": "K/sec"
                },
                "iTLB-load-misses": {
                    "counter-value": "29000536.000000",
                    "unit": "",
                    "event-runtime": 60237148176,
                    "pcnt-running": 31.0,
                    "metric-value": "32.276819",
                    "metric-unit": "of all iTLB cache accesses"
                },
                "L1-dcache-prefetches": {
                    "counter-value": "<not supported>",
                    "unit": "",
                    "event-runtime": 0,
                    "pcnt-running": 100.0,
                    "metric-value": "0.000000",
                    "metric-unit": ""
                },
                "L1-dcache-prefetch-misses": {
                    "counter-value": "<not supported>",
                    "unit": "",
                    "event-runtime": 0,
                    "pcnt-running": 100.0,
                    "metric-value": "0.000000",
                    "metric-unit": ""
                }
            }
        },
        "3": {
            "load": {
                "ok_queries": 1000.0,
                "errors": 0.0,
                "timeouts": 0.0,
                "total": 1000.0,
                "rps": 49.89278290417807,
                "total time": 20.042979,
                "avg": 59.93994,
                "min": 38.125,
                "max": 97.678,
                "q99": 86.56505000000001
            },
            "perf": {
                "task-clock": {
                    "counter-value": "58856.442498",
                    "unit": "msec",
                    "event-runtime": 58856442498,
                    "pcnt-running": 100.0,
                    "metric-value": "2.921889",
                    "metric-unit": "CPUs utilized"
                },
                "context-switches": {
                    "counter-value": "7743.000000",
                    "unit": "",
                    "event-runtime": 58856442498,
                    "pcnt-running": 100.0,
                    "metric-value": "131.557391",
                    "metric-unit": "/sec"
                },
                "cpu-migrations": {
                    "counter-value": "238.000000",
                    "unit": "",
                    "event-runtime": 58856442498,
                    "pcnt-running": 100.0,
                    "metric-value": "4.043737",
                    "metric-unit": "/sec"
                },
                "page-faults": {
                    "counter-value": "15001.000000",
                    "unit": "",
                    "event-runtime": 58856442498,
                    "pcnt-running": 100.0,
                    "metric-value": "254.874392",
                    "metric-unit": "/sec"
                },
                "cycles": {
                    "counter-value": "147192903616.000000",
                    "unit": "",
                    "event-runtime": 22665289012,
                    "pcnt-running": 40.0,
                    "metric-value": "2.500880",
                    "metric-unit": "GHz"
                },
                "instructions": {
                    "counter-value": "178750943893.000000",
                    "unit": "",
                    "event-runtime": 27190514662,
                    "pcnt-running": 47.0,
                    "metric-value": "1.214399",
                    "metric-unit": "insn per cycle"
                },
                "branches": {
                    "counter-value": "4705706070.000000",
                    "unit": "",
                    "event-runtime": 27193493895,
                    "pcnt-running": 47.0,
                    "metric-value": "79.952268",
                    "metric-unit": "M/sec"
                },
                "branch-misses": {
                    "counter-value": "72251740.000000",
                    "unit": "",
                    "event-runtime": 27199285331,
                    "pcnt-running": 47.0,
                    "metric-value": "1.535407",
                    "metric-unit": "of all branches"
                },
                "L1-dcache-loads": {
                    "counter-value": "58599606696.000000",
                    "unit": "",
                    "event-runtime": 27162853637,
                    "pcnt-running": 47.0,
                    "metric-value": "995.636233",
                    "metric-unit": "M/sec"
                },
                "L1-dcache-load-misses": {
                    "counter-value": "10685223207.000000",
                    "unit": "",
                    "event-runtime": 27123036777,
                    "pcnt-running": 47.0,
                    "metric-value": "18.234292",
                    "metric-unit": "of all L1-dcache accesses"
                },
                "LLC-loads": {
                    "counter-value": "1325090108.000000",
                    "unit": "",
                    "event-runtime": 18072417580,
                    "pcnt-running": 31.0,
                    "metric-value": "22.513935",
                    "metric-unit": "M/sec"
                },
                "LLC-load-misses": {
                    "counter-value": "531005858.000000",
                    "unit": "",
                    "event-runtime": 18060209957,
                    "pcnt-running": 32.0,
                    "metric-value": "40.073189",
                    "metric-unit": "of all L1-icache accesses"
                },
                "L1-icache-loads": {
                    "counter-value": "<not supported>",
                    "unit": "",
                    "event-runtime": 0,
                    "pcnt-running": 100.0,
                    "metric-value": "0.000000",
                    "metric-unit": ""
                },
                "L1-icache-load-misses": {
                    "counter-value": "897143296.000000",
                    "unit": "",
                    "event-runtime": 18089738078,
                    "pcnt-running": 32.0,
                    "metric-value": "0.000000",
                    "metric-unit": "of all L1-icache accesses"
                },
                "dTLB-loads": {
                    "counter-value": "57487650788.000000",
                    "unit": "",
                    "event-runtime": 18118039367,
                    "pcnt-running": 32.0,
                    "metric-value": "976.743553",
                    "metric-unit": "M/sec"
                },
                "dTLB-load-misses": {
                    "counter-value": "168744014.000000",
                    "unit": "",
                    "event-runtime": 18123818236,
                    "pcnt-running": 32.0,
                    "metric-value": "0.293531",
                    "metric-unit": "of all dTLB cache accesses"
                },
                "iTLB-loads": {
                    "counter-value": "54200912.000000",
                    "unit": "",
                    "event-runtime": 18138094317,
                    "pcnt-running": 32.0,
                    "metric-value": "920.900240",
                    "metric-unit": "K/sec"
                },
                "iTLB-load-misses": {
                    "counter-value": "17658440.000000",
                    "unit": "",
                    "event-runtime": 18144782817,
                    "pcnt-running": 32.0,
                    "metric-value": "32.579599",
                    "metric-unit": "of all iTLB cache accesses"
                },
                "L1-dcache-prefetches": {
                    "counter-value": "<not supported>",
                    "unit": "",
                    "event-runtime": 0,
                    "pcnt-running": 100.0,
                    "metric-value": "0.000000",
                    "metric-unit": ""
                },
                "L1-dcache-prefetch-misses": {
                    "counter-value": "<not supported>",
                    "unit": "",
                    "event-runtime": 0,
                    "pcnt-running": 100.0,
                    "metric-value": "0.000000",
                    "metric-unit": ""
                }
            }
        },
        "6": {
            "load": {
                "ok_queries": 1000.0,
                "errors": 0.0,
                "timeouts": 0.0,
                "total": 1000.0,
                "rps": 41.336609342296924,
                "total time": 24.191631,
                "avg": 144.743143,
                "min": 49.818,
                "max": 192.271,
                "q99": 185.49342999999996
            },
            "perf": {
                "task-clock": {
                    "counter-value": "143419.294450",
                    "unit": "msec",
                    "event-runtime": 143419294450,
                    "pcnt-running": 100.0,
                    "metric-value": "5.898547",
                    "metric-unit": "CPUs utilized"
                },
                "context-switches": {
                    "counter-value": "3676.000000",
                    "unit": "",
                    "event-runtime": 143419294450,
                    "pcnt-running": 100.0,
                    "metric-value": "25.631140",
                    "metric-unit": "/sec"
                },
                "cpu-migrations": {
                    "counter-value": "631.000000",
                    "unit": "",
                    "event-runtime": 143419294450,
                    "pcnt-running": 100.0,
                    "metric-value": "4.399687",
                    "metric-unit": "/sec"
                },
                "page-faults": {
                    "counter-value": "15000.000000",
                    "unit": "",
                    "event-runtime": 143419294450,
                    "pcnt-running": 100.0,
                    "metric-value": "104.588438",
                    "metric-unit": "/sec"
                },
                "cycles": {
                    "counter-value": "276044776934.000000",
                    "unit": "",
                    "event-runtime": 55139363182,
                    "pcnt-running": 39.0,
                    "metric-value": "1.924739",
                    "metric-unit": "GHz"
                },
                "instructions": {
                    "counter-value": "182095673311.000000",
                    "unit": "",
                    "event-runtime": 66164220298,
                    "pcnt-running": 46.0,
                    "metric-value": "0.659660",
                    "metric-unit": "insn per cycle"
                },
                "branches": {
                    "counter-value": "4856094846.000000",
                    "unit": "",
                    "event-runtime": 66149113576,
                    "pcnt-running": 46.0,
                    "metric-value": "33.859425",
                    "metric-unit": "M/sec"
                },
                "branch-misses": {
                    "counter-value": "80381283.000000",
                    "unit": "",
                    "event-runtime": 66139624131,
                    "pcnt-running": 46.0,
                    "metric-value": "1.655266",
                    "metric-unit": "of all branches"
                },
                "L1-dcache-loads": {
                    "counter-value": "59686081783.000000",
                    "unit": "",
                    "event-runtime": 66155462042,
                    "pcnt-running": 46.0,
                    "metric-value": "416.164938",
                    "metric-unit": "M/sec"
                },
                "L1-dcache-load-misses": {
                    "counter-value": "15242885004.000000",
                    "unit": "",
                    "event-runtime": 66179426198,
                    "pcnt-running": 46.0,
                    "metric-value": "25.538425",
                    "metric-unit": "of all L1-dcache accesses"
                },
                "LLC-loads": {
                    "counter-value": "1688935604.000000",
                    "unit": "",
                    "event-runtime": 44140223187,
                    "pcnt-running": 31.0,
                    "metric-value": "11.776209",
                    "metric-unit": "M/sec"
                },
                "LLC-load-misses": {
                    "counter-value": "1346159124.000000",
                    "unit": "",
                    "event-runtime": 44122762363,
                    "pcnt-running": 31.0,
                    "metric-value": "79.704586",
                    "metric-unit": "of all L1-icache accesses"
                },
                "L1-icache-loads": {
                    "counter-value": "<not supported>",
                    "unit": "",
                    "event-runtime": 0,
                    "pcnt-running": 100.0,
                    "metric-value": "0.000000",
                    "metric-unit": ""
                },
                "L1-icache-load-misses": {
                    "counter-value": "961704501.000000",
                    "unit": "",
                    "event-runtime": 44122189063,
                    "pcnt-running": 31.0,
                    "metric-value": "0.000000",
                    "metric-unit": "of all L1-icache accesses"
                },
                "dTLB-loads": {
                    "counter-value": "59315569772.000000",
                    "unit": "",
                    "event-runtime": 44155392080,
                    "pcnt-running": 31.0,
                    "metric-value": "413.581520",
                    "metric-unit": "M/sec"
                },
                "dTLB-load-misses": {
                    "counter-value": "217847435.000000",
                    "unit": "",
                    "event-runtime": 44188346055,
                    "pcnt-running": 31.0,
                    "metric-value": "0.367269",
                    "metric-unit": "of all dTLB cache accesses"
                },
                "iTLB-loads": {
                    "counter-value": "75741097.000000",
                    "unit": "",
                    "event-runtime": 44186295126,
                    "pcnt-running": 31.0,
                    "metric-value": "528.109536",
                    "metric-unit": "K/sec"
                },
                "iTLB-load-misses": {
                    "counter-value": "24631916.000000",
                    "unit": "",
                    "event-runtime": 44138343979,
                    "pcnt-running": 31.0,
                    "metric-value": "32.521203",
                    "metric-unit": "of all iTLB cache accesses"
                },
                "L1-dcache-prefetches": {
                    "counter-value": "<not supported>",
                    "unit": "",
                    "event-runtime": 0,
                    "pcnt-running": 100.0,
                    "metric-value": "0.000000",
                    "metric-unit": ""
                },
                "L1-dcache-prefetch-misses": {
                    "counter-value": "<not supported>",
                    "unit": "",
                    "event-runtime": 0,
                    "pcnt-running": 100.0,
                    "metric-value": "0.000000",
                    "metric-unit": ""
                }
            }
        }
    }
}
