[
    {
        "meta": {
            "threading_mode": "thread-per-request",
            "pin_mode": "no-pin",
            "keepalive": false
        },
        "experiment_names": [
            1,
            2,
            3,
            4,
            5,
            6,
            7,
            8,
            16,
            32,
            64,
            128,
            256,
            512
        ],
        "aggregated_experiment": {
            "load": {
                "ok_queries": [
                    1000.0,
                    1000.0,
                    1000.0,
                    1000.0,
                    1000.0,
                    1000.0,
                    1000.0,
                    1000.0,
                    1000.0,
                    1000.0,
                    1000.0,
                    1000.0,
                    1000.0,
                    1000.0
                ],
                "errors": [
                    0.0,
                    0.0,
                    0.0,
                    0.0,
                    0.0,
                    0.0,
                    0.0,
                    0.0,
                    0.0,
                    0.0,
                    0.0,
                    0.0,
                    0.0,
                    0.0
                ],
                "timeouts": [
                    0.0,
                    0.0,
                    0.0,
                    0.0,
                    0.0,
                    0.0,
                    0.0,
                    0.0,
                    0.0,
                    0.0,
                    0.0,
                    0.0,
                    0.0,
                    0.0
                ],
                "total": [
                    1000.0,
                    1000.0,
                    1000.0,
                    1000.0,
                    1000.0,
                    1000.0,
                    1000.0,
                    1000.0,
                    1000.0,
                    1000.0,
                    1000.0,
                    1000.0,
                    1000.0,
                    1000.0
                ],
                "rps": [
                    20.038992673503813,
                    38.046334424007604,
                    43.91279130428368,
                    41.20215528474294,
                    39.069111226165305,
                    39.700333939358934,
                    46.75569480856092,
                    43.821810527024326,
                    37.734104744214655,
                    37.33339366409749,
                    36.90767699611665,
                    37.61671620662802,
                    38.12197139998213,
                    37.961770295529725
                ],
                "total time": [
                    49.902708,
                    26.283741,
                    22.772408,
                    24.270575,
                    25.595668,
                    25.188705,
                    21.387769,
                    22.819687,
                    26.501225,
                    26.785671,
                    27.094634,
                    26.583926,
                    26.231592,
                    26.342291
                ],
                "avg": [
                    49.807906,
                    52.467394,
                    68.112293,
                    96.799395,
                    127.596139,
                    150.786251,
                    149.202938,
                    181.989623,
                    422.381059,
                    851.394726,
                    1715.214488,
                    3321.961113,
                    6398.628538,
                    12109.878998
                ],
                "min": [
                    44.166999999999994,
                    40.949,
                    40.059999999999995,
                    40.339,
                    50.089,
                    54.82,
                    60.123000000000005,
                    85.295,
                    193.03400000000002,
                    253.386,
                    156.892,
                    1165.928,
                    556.759,
                    1291.012
                ],
                "max": [
                    69.563,
                    72.807,
                    100.104,
                    143.68900000000002,
                    188.225,
                    195.74099999999999,
                    214.984,
                    275.872,
                    614.352,
                    1202.993,
                    3202.01,
                    5476.753000000001,
                    15575.020999999999,
                    22581.931999999997
                ],
                "q99": [
                    58.04737,
                    70.32106,
                    93.43822,
                    133.1908,
                    180.70664,
                    192.8703,
                    201.98656,
                    252.87426000000002,
                    566.83449,
                    1041.84081,
                    2743.5356399999996,
                    4733.497870000001,
                    12563.84814,
                    21894.42295
                ]
            },
            "perf": {
                "task-clock": {
                    "counter-value": [
                        49242.595041,
                        51592.129887,
                        67110.213902,
                        95590.766748,
                        126362.687339,
                        149421.034001,
                        146759.53683,
                        173851.221063,
                        204243.16448,
                        206434.957983,
                        207736.684831,
                        206353.874448,
                        204270.852852,
                        204291.777207
                    ],
                    "unit": "msec",
                    "event-runtime": [
                        49242595041,
                        51592129887,
                        67110213902,
                        95590766748,
                        126362687339,
                        149421034001,
                        146759536830,
                        173851221063,
                        204243164480,
                        206434957983,
                        207736684831,
                        206353874448,
                        204270852852,
                        204291777207
                    ],
                    "pcnt-running": [
                        100.0,
                        100.0,
                        100.0,
                        100.0,
                        100.0,
                        100.0,
                        100.0,
                        100.0,
                        100.0,
                        100.0,
                        100.0,
                        100.0,
                        100.0,
                        100.0
                    ],
                    "metric-value": [
                        0.984984,
                        1.955964,
                        2.935316,
                        3.923507,
                        4.918982,
                        5.90949,
                        6.831827,
                        7.587025,
                        7.676706,
                        7.679473,
                        7.637359,
                        7.733012,
                        7.755725,
                        7.725018
                    ],
                    "metric-unit": "CPUs utilized"
                },
                "context-switches": {
                    "counter-value": [
                        1960.0,
                        8633.0,
                        6164.0,
                        4857.0,
                        3688.0,
                        3816.0,
                        6143.0,
                        16032.0,
                        60094.0,
                        70428.0,
                        70713.0,
                        70768.0,
                        70119.0,
                        73189.0
                    ],
                    "unit": "",
                    "event-runtime": [
                        49242595041,
                        51592129887,
                        67110213902,
                        95590766748,
                        126362687339,
                        149421034001,
                        146759536830,
                        173851221063,
                        204243164480,
                        206434957983,
                        207736684831,
                        206353874448,
                        204270852852,
                        204291777207
                    ],
                    "pcnt-running": [
                        100.0,
                        100.0,
                        100.0,
                        100.0,
                        100.0,
                        100.0,
                        100.0,
                        100.0,
                        100.0,
                        100.0,
                        100.0,
                        100.0,
                        100.0,
                        100.0
                    ],
                    "metric-value": [
                        39.802939,
                        167.331723,
                        91.84891,
                        50.810347,
                        29.185831,
                        25.538573,
                        41.857586,
                        92.216781,
                        294.227717,
                        341.163147,
                        340.397268,
                        342.944857,
                        343.264832,
                        358.2572
                    ],
                    "metric-unit": "/sec"
                },
                "cpu-migrations": {
                    "counter-value": [
                        24.0,
                        107.0,
                        246.0,
                        348.0,
                        440.0,
                        610.0,
                        899.0,
                        1111.0,
                        838.0,
                        1185.0,
                        1955.0,
                        3153.0,
                        6977.0,
                        12215.0
                    ],
                    "unit": "",
                    "event-runtime": [
                        49242595041,
                        51592129887,
                        67110213902,
                        95590766748,
                        126362687339,
                        149421034001,
                        146759536830,
                        173851221063,
                        204243164480,
                        206434957983,
                        207736684831,
                        206353874448,
                        204270852852,
                        204291777207
                    ],
                    "pcnt-running": [
                        100.0,
                        100.0,
                        100.0,
                        100.0,
                        100.0,
                        100.0,
                        100.0,
                        100.0,
                        100.0,
                        100.0,
                        100.0,
                        100.0,
                        100.0,
                        100.0
                    ],
                    "metric-value": [
                        0.487383,
                        2.07396,
                        3.665612,
                        3.640519,
                        3.482041,
                        4.082424,
                        6.125667,
                        6.390522,
                        4.102952,
                        5.740307,
                        9.410952,
                        15.279577,
                        34.155632,
                        59.791932
                    ],
                    "metric-unit": "/sec"
                },
                "page-faults": {
                    "counter-value": [
                        16023.0,
                        15990.0,
                        15989.0,
                        15944.0,
                        15869.0,
                        15914.0,
                        15909.0,
                        16611.0,
                        21595.0,
                        26980.0,
                        42847.0,
                        40872.0,
                        67068.0,
                        136592.0
                    ],
                    "unit": "",
                    "event-runtime": [
                        49242595041,
                        51592129887,
                        67110213902,
                        95590766748,
                        126362687339,
                        149421034001,
                        146759536830,
                        173851221063,
                        204243164480,
                        206434957983,
                        207736684831,
                        206353874448,
                        204270852852,
                        204291777207
                    ],
                    "pcnt-running": [
                        100.0,
                        100.0,
                        100.0,
                        100.0,
                        100.0,
                        100.0,
                        100.0,
                        100.0,
                        100.0,
                        100.0,
                        100.0,
                        100.0,
                        100.0,
                        100.0
                    ],
                    "metric-value": [
                        325.389025,
                        309.930992,
                        238.249874,
                        166.794352,
                        125.582958,
                        106.504416,
                        108.401814,
                        95.547215,
                        105.731813,
                        130.694918,
                        206.2563,
                        198.067519,
                        328.32878,
                        668.612324
                    ],
                    "metric-unit": "/sec"
                },
                "cycles": {
                    "counter-value": [
                        128098993548.0,
                        137963247715.0,
                        160264187028.0,
                        191010378610.0,
                        238595895731.0,
                        280909227028.0,
                        296202044293.0,
                        338366393791.0,
                        360350600730.0,
                        361097378440.0,
                        363544621541.0,
                        361145787335.0,
                        360393589066.0,
                        361066599485.0
                    ],
                    "unit": "",
                    "event-runtime": [
                        18845355991,
                        19836756668,
                        25925427274,
                        36673213829,
                        48492803147,
                        57328498720,
                        56366506836,
                        66974505640,
                        78527349982,
                        79437454270,
                        79904090009,
                        79279613529,
                        78738289186,
                        78555984777
                    ],
                    "pcnt-running": [
                        40.0,
                        40.0,
                        39.0,
                        39.0,
                        39.0,
                        39.0,
                        39.0,
                        39.0,
                        38.0,
                        38.0,
                        38.0,
                        38.0,
                        39.0,
                        38.0
                    ],
                    "metric-value": [
                        2.601386,
                        2.674114,
                        2.388074,
                        1.99821,
                        1.888183,
                        1.879984,
                        2.018281,
                        1.946299,
                        1.764321,
                        1.749207,
                        1.750026,
                        1.750128,
                        1.764293,
                        1.767406
                    ],
                    "metric-unit": "GHz"
                },
                "instructions": {
                    "counter-value": [
                        177706882922.0,
                        177575198929.0,
                        180044328371.0,
                        180815982148.0,
                        181605900529.0,
                        182102510527.0,
                        182570544993.0,
                        182686394824.0,
                        183243948618.0,
                        183390079240.0,
                        183727048554.0,
                        183659176757.0,
                        183844692496.0,
                        184302347679.0
                    ],
                    "unit": "",
                    "event-runtime": [
                        22610297771,
                        23787262621,
                        31087290581,
                        44039175241,
                        58202609414,
                        68794205662,
                        67637059829,
                        80378894752,
                        94238782012,
                        95284868208,
                        95870005036,
                        95150126209,
                        94473827016,
                        94307553492
                    ],
                    "pcnt-running": [
                        47.0,
                        47.0,
                        47.0,
                        46.0,
                        46.0,
                        46.0,
                        46.0,
                        46.0,
                        46.0,
                        46.0,
                        46.0,
                        46.0,
                        46.0,
                        46.0
                    ],
                    "metric-value": [
                        1.387262,
                        1.28712,
                        1.123422,
                        0.946629,
                        0.761144,
                        0.648261,
                        0.616372,
                        0.539907,
                        0.508516,
                        0.507869,
                        0.505377,
                        0.508546,
                        0.510122,
                        0.510439
                    ],
                    "metric-unit": "insn per cycle"
                },
                "branches": {
                    "counter-value": [
                        4704065473.0,
                        4677749139.0,
                        4763791791.0,
                        4798064256.0,
                        4812524822.0,
                        4838449282.0,
                        4872739332.0,
                        4911986053.0,
                        4952664320.0,
                        4982583807.0,
                        4996573886.0,
                        5023927474.0,
                        5051209795.0,
                        5137272761.0
                    ],
                    "unit": "",
                    "event-runtime": [
                        22603702280,
                        23758274662,
                        31048242390,
                        44045061982,
                        58242691696,
                        68811648398,
                        67621392496,
                        80386668893,
                        94238306028,
                        95246684817,
                        95891681621,
                        95175510861,
                        94508909571,
                        94387130133
                    ],
                    "pcnt-running": [
                        47.0,
                        47.0,
                        47.0,
                        46.0,
                        46.0,
                        46.0,
                        46.0,
                        46.0,
                        46.0,
                        46.0,
                        46.0,
                        46.0,
                        46.0,
                        46.0
                    ],
                    "metric-value": [
                        95.528383,
                        90.667882,
                        70.984602,
                        50.193804,
                        38.085015,
                        32.381313,
                        33.202199,
                        28.253963,
                        24.248862,
                        24.136337,
                        24.052439,
                        24.346175,
                        24.728001,
                        25.146743
                    ],
                    "metric-unit": "M/sec"
                },
                "branch-misses": {
                    "counter-value": [
                        67804311.0,
                        69884153.0,
                        73691019.0,
                        78888985.0,
                        81023313.0,
                        80493609.0,
                        82276500.0,
                        83060133.0,
                        84440487.0,
                        84907707.0,
                        86212730.0,
                        87270481.0,
                        84914308.0,
                        85506590.0
                    ],
                    "unit": "",
                    "event-runtime": [
                        22646044570,
                        23710877692,
                        30953848671,
                        44046935168,
                        58284474214,
                        68851503618,
                        67640254554,
                        80328570730,
                        94232355964,
                        95229369878,
                        95874687187,
                        95178536658,
                        94469865348,
                        94436519501
                    ],
                    "pcnt-running": [
                        47.0,
                        47.0,
                        46.0,
                        46.0,
                        46.0,
                        46.0,
                        46.0,
                        46.0,
                        46.0,
                        46.0,
                        46.0,
                        46.0,
                        46.0,
                        46.0
                    ],
                    "metric-value": [
                        1.441398,
                        1.49397,
                        1.546898,
                        1.644184,
                        1.683593,
                        1.663624,
                        1.688506,
                        1.690968,
                        1.704951,
                        1.70409,
                        1.725437,
                        1.737097,
                        1.681069,
                        1.664435
                    ],
                    "metric-unit": "of all branches"
                },
                "L1-dcache-loads": {
                    "counter-value": [
                        58301015005.0,
                        58786170237.0,
                        59053127832.0,
                        59383402616.0,
                        59510207872.0,
                        59655284344.0,
                        59660837824.0,
                        59859331285.0,
                        60094950152.0,
                        60079994580.0,
                        60086931584.0,
                        60107419086.0,
                        60174278609.0,
                        60278667439.0
                    ],
                    "unit": "",
                    "event-runtime": [
                        22685990741,
                        23697342658,
                        30854376904,
                        44088051797,
                        58355475348,
                        68916242259,
                        67677496584,
                        80253075483,
                        94245809794,
                        95214546823,
                        95872034239,
                        95176796740,
                        94399744409,
                        94476074582
                    ],
                    "pcnt-running": [
                        47.0,
                        47.0,
                        46.0,
                        46.0,
                        46.0,
                        46.0,
                        46.0,
                        46.0,
                        46.0,
                        46.0,
                        46.0,
                        46.0,
                        46.0,
                        46.0
                    ],
                    "metric-value": [
                        1.183955,
                        1.139441,
                        879.942477,
                        621.225299,
                        470.947628,
                        399.242883,
                        406.521028,
                        344.313551,
                        294.232369,
                        291.035952,
                        289.245646,
                        291.283211,
                        294.580836,
                        295.061643
                    ],
                    "metric-unit": "G/sec"
                },
                "L1-dcache-load-misses": {
                    "counter-value": [
                        10057523937.0,
                        10381220500.0,
                        10756939748.0,
                        11329700854.0,
                        13305377735.0,
                        15252667786.0,
                        16421235987.0,
                        17757817513.0,
                        18076023821.0,
                        18060996366.0,
                        18002380103.0,
                        18108914559.0,
                        18127633727.0,
                        18108157465.0
                    ],
                    "unit": "",
                    "event-runtime": [
                        22740618406,
                        23738118709,
                        30850055007,
                        44152395279,
                        58407608504,
                        69000139566,
                        67743889275,
                        80192910942,
                        94271677633,
                        95240111571,
                        95890245688,
                        95213194156,
                        94261465737,
                        94425899697
                    ],
                    "pcnt-running": [
                        47.0,
                        47.0,
                        46.0,
                        46.0,
                        46.0,
                        46.0,
                        46.0,
                        46.0,
                        46.0,
                        46.0,
                        46.0,
                        46.0,
                        46.0,
                        46.0
                    ],
                    "metric-value": [
                        17.251027,
                        17.65929,
                        18.215699,
                        19.078901,
                        22.358144,
                        25.568008,
                        27.524313,
                        29.665914,
                        30.079106,
                        30.061581,
                        29.960558,
                        30.127586,
                        30.12522,
                        30.04074
                    ],
                    "metric-unit": "of all L1-dcache accesses"
                },
                "LLC-loads": {
                    "counter-value": [
                        1687412911.0,
                        1485605952.0,
                        1363067603.0,
                        1411426328.0,
                        1585311285.0,
                        1746038221.0,
                        1681739719.0,
                        1939946295.0,
                        2085552788.0,
                        2083525967.0,
                        2090583478.0,
                        2089910231.0,
                        2088719281.0,
                        2101630500.0
                    ],
                    "unit": "",
                    "event-runtime": [
                        15232194025,
                        15887417796,
                        20528130395,
                        29462705941,
                        38991505747,
                        46106597323,
                        45242327462,
                        53372798240,
                        62898106746,
                        63564123709,
                        63976564580,
                        63517265579,
                        62709553883,
                        62857767831
                    ],
                    "pcnt-running": [
                        31.0,
                        31.0,
                        31.0,
                        31.0,
                        31.0,
                        31.0,
                        31.0,
                        30.0,
                        31.0,
                        31.0,
                        31.0,
                        31.0,
                        30.0,
                        30.0
                    ],
                    "metric-value": [
                        34.267343,
                        28.795205,
                        20.310882,
                        14.7653,
                        12.545723,
                        11.685358,
                        11.459151,
                        11.158658,
                        10.211126,
                        10.092893,
                        10.063622,
                        10.127797,
                        10.225244,
                        10.287396
                    ],
                    "metric-unit": "M/sec"
                },
                "LLC-load-misses": {
                    "counter-value": [
                        754765454.0,
                        494650205.0,
                        628917185.0,
                        918861359.0,
                        1212877447.0,
                        1368653339.0,
                        1155523880.0,
                        1398553895.0,
                        1767338365.0,
                        1767177731.0,
                        1771454502.0,
                        1759728867.0,
                        1722092721.0,
                        1701422490.0
                    ],
                    "unit": "",
                    "event-runtime": [
                        15237912220,
                        15928787911,
                        20583887099,
                        29485934411,
                        38971478121,
                        46137977736,
                        45260493824,
                        53407222632,
                        62881253785,
                        63547510710,
                        63961957129,
                        63544993154,
                        62728041273,
                        62824078251
                    ],
                    "pcnt-running": [
                        32.0,
                        32.0,
                        31.0,
                        31.0,
                        31.0,
                        31.0,
                        31.0,
                        31.0,
                        31.0,
                        31.0,
                        31.0,
                        31.0,
                        31.0,
                        31.0
                    ],
                    "metric-value": [
                        44.72915,
                        33.296192,
                        46.139838,
                        65.101617,
                        76.507211,
                        78.386219,
                        68.710031,
                        72.092403,
                        84.741963,
                        84.816689,
                        84.734933,
                        84.20117,
                        82.447303,
                        80.957261
                    ],
                    "metric-unit": "of all L1-icache accesses"
                },
                "L1-icache-loads": {
                    "counter-value": [
                        "<not supported>",
                        "<not supported>",
                        "<not supported>",
                        "<not supported>",
                        "<not supported>",
                        "<not supported>",
                        "<not supported>",
                        "<not supported>",
                        "<not supported>",
                        "<not supported>",
                        "<not supported>",
                        "<not supported>",
                        "<not supported>",
                        "<not supported>"
                    ],
                    "unit": "",
                    "event-runtime": [
                        0,
                        0,
                        0,
                        0,
                        0,
                        0,
                        0,
                        0,
                        0,
                        0,
                        0,
                        0,
                        0,
                        0
                    ],
                    "pcnt-running": [
                        100.0,
                        100.0,
                        100.0,
                        100.0,
                        100.0,
                        100.0,
                        100.0,
                        100.0,
                        100.0,
                        100.0,
                        100.0,
                        100.0,
                        100.0,
                        100.0
                    ],
                    "metric-value": [
                        0.0,
                        0.0,
                        0.0,
                        0.0,
                        0.0,
                        0.0,
                        0.0,
                        0.0,
                        0.0,
                        0.0,
                        0.0,
                        0.0,
                        0.0,
                        0.0
                    ],
                    "metric-unit": ""
                },
                "L1-icache-load-misses": {
                    "counter-value": [
                        847739299.0,
                        894485089.0,
                        913115077.0,
                        962449682.0,
                        976747678.0,
                        980315208.0,
                        930659243.0,
                        997904124.0,
                        1060178329.0,
                        1075767186.0,
                        1097359911.0,
                        1084530706.0,
                        1107266200.0,
                        1151909972.0
                    ],
                    "unit": "",
                    "event-runtime": [
                        15244100359,
                        15935934495,
                        20658511048,
                        29489405877,
                        38930470678,
                        46104325963,
                        45244574734,
                        53436544069,
                        62872376448,
                        63531038748,
                        63906515062,
                        63584949621,
                        62721836130,
                        62781602260
                    ],
                    "pcnt-running": [
                        32.0,
                        32.0,
                        32.0,
                        31.0,
                        31.0,
                        31.0,
                        31.0,
                        31.0,
                        31.0,
                        31.0,
                        31.0,
                        31.0,
                        31.0,
                        31.0
                    ],
                    "metric-value": [
                        0.0,
                        0.0,
                        0.0,
                        0.0,
                        0.0,
                        0.0,
                        0.0,
                        0.0,
                        0.0,
                        0.0,
                        0.0,
                        0.0,
                        0.0,
                        0.0
                    ],
                    "metric-unit": "of all L1-icache accesses"
                },
                "dTLB-loads": {
                    "counter-value": [
                        57233640499.0,
                        57108341653.0,
                        57779805839.0,
                        58625851978.0,
                        59201077457.0,
                        59437068981.0,
                        59310475753.0,
                        59625860892.0,
                        59696207604.0,
                        59855408270.0,
                        59836688936.0,
                        59788340069.0,
                        59864977044.0,
                        60031376611.0
                    ],
                    "unit": "",
                    "event-runtime": [
                        15221889751,
                        15931816919,
                        20696586439,
                        29457995912,
                        38867217410,
                        46035199896,
                        45208444126,
                        53448038819,
                        62865406540,
                        63526175085,
                        63872144264,
                        63566707995,
                        62750170257,
                        62753150233
                    ],
                    "pcnt-running": [
                        32.0,
                        32.0,
                        32.0,
                        31.0,
                        31.0,
                        31.0,
                        31.0,
                        31.0,
                        31.0,
                        31.0,
                        31.0,
                        31.0,
                        31.0,
                        31.0
                    ],
                    "metric-value": [
                        1.162279,
                        1.10692,
                        860.968882,
                        613.300363,
                        468.501254,
                        397.782477,
                        404.133708,
                        342.970619,
                        292.280076,
                        289.948025,
                        288.041031,
                        289.73694,
                        293.066662,
                        293.851164
                    ],
                    "metric-unit": "G/sec"
                },
                "dTLB-load-misses": {
                    "counter-value": [
                        165666194.0,
                        166539428.0,
                        171056657.0,
                        177044629.0,
                        198421180.0,
                        218074547.0,
                        230869129.0,
                        242699299.0,
                        253988364.0,
                        256792004.0,
                        257329019.0,
                        258447096.0,
                        259693110.0,
                        259694163.0
                    ],
                    "unit": "",
                    "event-runtime": [
                        15160788458,
                        15939953267,
                        20741496037,
                        29427469922,
                        38830324923,
                        45970214869,
                        45166107485,
                        53489711660,
                        62817976041,
                        63536724039,
                        63862588051,
                        63532866386,
                        62759022766,
                        62721044220
                    ],
                    "pcnt-running": [
                        32.0,
                        32.0,
                        32.0,
                        31.0,
                        31.0,
                        31.0,
                        31.0,
                        31.0,
                        31.0,
                        31.0,
                        31.0,
                        31.0,
                        31.0,
                        31.0
                    ],
                    "metric-value": [
                        0.289456,
                        0.29162,
                        0.296049,
                        0.301991,
                        0.335165,
                        0.3669,
                        0.389255,
                        0.407037,
                        0.425468,
                        0.429021,
                        0.430052,
                        0.43227,
                        0.433798,
                        0.432597
                    ],
                    "metric-unit": "of all dTLB cache accesses"
                },
                "iTLB-loads": {
                    "counter-value": [
                        52638366.0,
                        52310117.0,
                        55214846.0,
                        59510834.0,
                        69546554.0,
                        78715211.0,
                        85704597.0,
                        92758269.0,
                        93037485.0,
                        93070384.0,
                        91879823.0,
                        92691490.0,
                        91347369.0,
                        91109023.0
                    ],
                    "unit": "",
                    "event-runtime": [
                        15119269208,
                        15934816967,
                        20773061041,
                        29373438207,
                        38791496534,
                        45890732034,
                        45133639017,
                        53523739899,
                        62832600774,
                        63543229857,
                        63898941479,
                        63484025502,
                        62820936853,
                        62714322898
                    ],
                    "pcnt-running": [
                        32.0,
                        32.0,
                        32.0,
                        31.0,
                        31.0,
                        31.0,
                        31.0,
                        31.0,
                        31.0,
                        31.0,
                        31.0,
                        31.0,
                        31.0,
                        31.0
                    ],
                    "metric-value": [
                        1.06896,
                        1.013917,
                        822.748771,
                        622.558392,
                        550.372546,
                        526.801407,
                        583.979746,
                        533.549712,
                        455.523127,
                        450.846043,
                        442.28983,
                        449.187059,
                        447.187485,
                        445.974989
                    ],
                    "metric-unit": "M/sec"
                },
                "iTLB-load-misses": {
                    "counter-value": [
                        16996509.0,
                        17298642.0,
                        18313850.0,
                        19218349.0,
                        22208822.0,
                        24969035.0,
                        26802406.0,
                        28681181.0,
                        29399923.0,
                        29629510.0,
                        29639770.0,
                        29959249.0,
                        29983053.0,
                        30424011.0
                    ],
                    "unit": "",
                    "event-runtime": [
                        15077870146,
                        15905178472,
                        20752660577,
                        29333672496,
                        38778006181,
                        45859554342,
                        45099527763,
                        53565602885,
                        62816788167,
                        63560316695,
                        63939380024,
                        63440651140,
                        62953865181,
                        62789519222
                    ],
                    "pcnt-running": [
                        32.0,
                        32.0,
                        32.0,
                        31.0,
                        31.0,
                        31.0,
                        31.0,
                        31.0,
                        31.0,
                        31.0,
                        31.0,
                        31.0,
                        31.0,
                        31.0
                    ],
                    "metric-value": [
                        32.289203,
                        33.0694,
                        33.168344,
                        32.293866,
                        31.933749,
                        31.720724,
                        31.273009,
                        30.92035,
                        31.600084,
                        31.835594,
                        32.259281,
                        32.321467,
                        32.823116,
                        33.392973
                    ],
                    "metric-unit": "of all iTLB cache accesses"
                },
                "L1-dcache-prefetches": {
                    "counter-value": [
                        "<not supported>",
                        "<not supported>",
                        "<not supported>",
                        "<not supported>",
                        "<not supported>",
                        "<not supported>",
                        "<not supported>",
                        "<not supported>",
                        "<not supported>",
                        "<not supported>",
                        "<not supported>",
                        "<not supported>",
                        "<not supported>",
                        "<not supported>"
                    ],
                    "unit": "",
                    "event-runtime": [
                        0,
                        0,
                        0,
                        0,
                        0,
                        0,
                        0,
                        0,
                        0,
                        0,
                        0,
                        0,
                        0,
                        0
                    ],
                    "pcnt-running": [
                        100.0,
                        100.0,
                        100.0,
                        100.0,
                        100.0,
                        100.0,
                        100.0,
                        100.0,
                        100.0,
                        100.0,
                        100.0,
                        100.0,
                        100.0,
                        100.0
                    ],
                    "metric-value": [
                        0.0,
                        0.0,
                        0.0,
                        0.0,
                        0.0,
                        0.0,
                        0.0,
                        0.0,
                        0.0,
                        0.0,
                        0.0,
                        0.0,
                        0.0,
                        0.0
                    ],
                    "metric-unit": ""
                },
                "L1-dcache-prefetch-misses": {
                    "counter-value": [
                        "<not supported>",
                        "<not supported>",
                        "<not supported>",
                        "<not supported>",
                        "<not supported>",
                        "<not supported>",
                        "<not supported>",
                        "<not supported>",
                        "<not supported>",
                        "<not supported>",
                        "<not supported>",
                        "<not supported>",
                        "<not supported>",
                        "<not supported>"
                    ],
                    "unit": "",
                    "event-runtime": [
                        0,
                        0,
                        0,
                        0,
                        0,
                        0,
                        0,
                        0,
                        0,
                        0,
                        0,
                        0,
                        0,
                        0
                    ],
                    "pcnt-running": [
                        100.0,
                        100.0,
                        100.0,
                        100.0,
                        100.0,
                        100.0,
                        100.0,
                        100.0,
                        100.0,
                        100.0,
                        100.0,
                        100.0,
                        100.0,
                        100.0
                    ],
                    "metric-value": [
                        0.0,
                        0.0,
                        0.0,
                        0.0,
                        0.0,
                        0.0,
                        0.0,
                        0.0,
                        0.0,
                        0.0,
                        0.0,
                        0.0,
                        0.0,
                        0.0
                    ],
                    "metric-unit": ""
                }
            }
        }
    }
]